Convert Statistical Objects into Tidy Tibbles • broom
…
glance() returns a tibble with exactly one row of goodness of fitness measures and related statistics. This is useful to check for model misspecification and to compare many models.

glance(fit)
#> # A tibble: 1 × 12
#>   r.squared adj.r.squared sigma statistic  p.value    df logLik   AIC   BIC
#>       <dbl>         <dbl> <dbl>     <dbl>    <dbl> <dbl>  <dbl> <dbl> <dbl>
#> 1     0.948         0.944  3.88      255. 1.07e-18     2  -84.5  177.  183.
#> # ℹ 3 more variables: deviance <dbl>, df.residual <int>, nobs <int>

augment adds columns to a dataset, containing information such as fitted values, residuals or cluster assignments. All columns added to a dataset have . prefix to prevent existing columns from being overwritten.

augment(fit, data = trees)
#> # A tibble: 31 × 9
#>    Girth Height Volume .fitted .resid   .hat .sigma   .cooksd .std.resid
#>    <dbl>  <dbl>  <dbl>   <dbl>  <dbl>  <dbl>  <dbl>     <dbl>      <dbl>
#>  1   8.3     70   10.3    4.84  5.46  0.116    3.79 0.0978        1.50  
#>  2   8.6     65   10.3    4.55  5.75  0.147    3.77 0.148         1.60  
#>  3   8.8     63   10.2    4.82  5.38  0.177    3.78 0.167         1.53  
#>  4  10.5     72   16.4   15.9   0.526 0.0592   3.95 0.000409      0.140 
#>  5  10.7     81   18.8   19.9  -1.07  0.121    3.95 0.00394      -0.294 
#>  6  10.8     83   19.7   21.0  -1.32  0.156    3.94 0.00840      -0.370 
#>  7  11       66   15.6   16.2  -0.593 0.115    3.95 0.00114      -0.162 
#>  8  11       75   18.2   19.2  -1.05  0.0515   3.95 0.00138      -0.277 
#>  9  11.1     80   22.6   21.4   1.19  0.0920   3.95 0.00348       0.321 
#> 10  11.2     75   19.9   20.2  -0.288 0.0480   3.95 0.0000968    -0.0759
#> # ℹ 21 more rows
…
