…
This gives you a tabular data representation. Note that the row names
have been moved into a column called `term`, and the column names are
simple and consistent (and can be accessed using `$`).

Instead of viewing the coefficients, you might be interested in the
fitted values and residuals for each of the original points in the
regression. For this, use `augment`, which augments the original data
with information from the model:

``` r
augment(lmfit)
```

    ## # A tibble: 32 × 9
    ##    .rownames           mpg    wt .fitted .resid   .hat .sigma   .cooksd
    ##    <chr>             <dbl> <dbl>   <dbl>  <dbl>  <dbl>  <dbl>     <dbl>
    ##  1 Mazda RX4          21    2.62    23.3 -2.28  0.0433   3.07 0.0133   
    ##  2 Mazda RX4 Wag      21    2.88    21.9 -0.920 0.0352   3.09 0.00172  
    ##  3 Datsun 710         22.8  2.32    24.9 -2.09  0.0584   3.07 0.0154   
    ##  4 Hornet 4 Drive     21.4  3.22    20.1  1.30  0.0313   3.09 0.00302  
    ##  5 Hornet Sportabout  18.7  3.44    18.9 -0.200 0.0329   3.10 0.0000760
    ##  6 Valiant            18.1  3.46    18.8 -0.693 0.0332   3.10 0.000921 
    ##  7 Duster 360         14.3  3.57    18.2 -3.91  0.0354   3.01 0.0313   
    ##  8 Merc 240D          24.4  3.19    20.2  4.16  0.0313   3.00 0.0311   
    ##  9 Merc 230           22.8  3.15    20.5  2.35  0.0314   3.07 0.00996  
    ## 10 Merc 280           19.2  3.44    18.9  0.300 0.0329   3.10 0.000171 
    ## # ℹ 22 more rows
    ## # ℹ 1 more variable: .std.resid <dbl>
…
    ## # A tibble: 2 × 5
    ##   term        estimate std.error statistic p.value
    ##   <chr>          <dbl>     <dbl>     <dbl>   <dbl>
    ## 1 (Intercept)    12.0       4.51      2.67 0.00759
    ## 2 wt             -4.02      1.44     -2.80 0.00509

``` r
augment(glmfit)
```

    ## # A tibble: 32 × 9
    ##    .rownames            am    wt .fitted .resid   .hat .sigma .cooksd
    ##    <chr>             <dbl> <dbl>   <dbl>  <dbl>  <dbl>  <dbl>   <dbl>
    ##  1 Mazda RX4             1  2.62   1.50   0.635 0.126   0.803 0.0184 
    ##  2 Mazda RX4 Wag         1  2.88   0.471  0.985 0.108   0.790 0.0424 
    ##  3 Datsun 710            1  2.32   2.70   0.360 0.0963  0.810 0.00394
    ##  4 Hornet 4 Drive        0  3.22  -0.897 -0.827 0.0744  0.797 0.0177 
    ##  5 Hornet Sportabout     0  3.44  -1.80  -0.553 0.0681  0.806 0.00647
    ##  6 Valiant               0  3.46  -1.88  -0.532 0.0674  0.807 0.00590
    ##  7 Duster 360            0  3.57  -2.33  -0.432 0.0625  0.809 0.00348
    ##  8 Merc 240D             0  3.19  -0.796 -0.863 0.0755  0.796 0.0199 
    ##  9 Merc 230              0  3.15  -0.635 -0.922 0.0776  0.793 0.0242 
    ## 10 Merc 280              0  3.44  -1.80  -0.553 0.0681  0.806 0.00647
    ## # ℹ 22 more rows
    ## # ℹ 1 more variable: .std.resid <dbl>
…
    ## # A tibble: 2 × 5
    ##   term  estimate std.error statistic  p.value
    ##   <chr>    <dbl>     <dbl>     <dbl>    <dbl>
    ## 1 k        45.8       4.25     10.8  7.64e-12
    ## 2 b         4.39      1.54      2.85 7.74e- 3

``` r
augment(nlsfit, mtcars)
```

    ## # A tibble: 32 × 14
    ##    .rownames        mpg   cyl  disp    hp  drat    wt  qsec    vs    am
    ##    <chr>          <dbl> <dbl> <dbl> <dbl> <dbl> <dbl> <dbl> <dbl> <dbl>
    ##  1 Mazda RX4       21       6  160    110  3.9   2.62  16.5     0     1
    ##  2 Mazda RX4 Wag   21       6  160    110  3.9   2.88  17.0     0     1
    ##  3 Datsun 710      22.8     4  108     93  3.85  2.32  18.6     1     1
    ##  4 Hornet 4 Drive  21.4     6  258    110  3.08  3.22  19.4     1     0
    ##  5 Hornet Sporta…  18.7     8  360    175  3.15  3.44  17.0     0     0
    ##  6 Valiant         18.1     6  225    105  2.76  3.46  20.2     1     0
    ##  7 Duster 360      14.3     8  360    245  3.21  3.57  15.8     0     0
    ##  8 Merc 240D       24.4     4  147.    62  3.69  3.19  20       1     0
    ##  9 Merc 230        22.8     4  141.    95  3.92  3.15  22.9     1     0
    ## 10 Merc 280        19.2     6  168.   123  3.92  3.44  18.3     1     0
    ## # ℹ 22 more rows
    ## # ℹ 4 more variables: gear <dbl>, carb <dbl>, .fitted <dbl>,
    ## #   .resid <dbl>
…
