Augment data with information from a(n) rlm object — augment.rlm • broom
…
r <- rlm(stack.loss ~ ., stackloss)

tidy(r)

#> # A tibble: 4 x 4
#>   term        estimate std.error statistic
#>   <chr>          <dbl>     <dbl>     <dbl>
#> 1 (Intercept)  -41.0       9.81     -4.18 
#> 2 Air.Flow       0.829     0.111     7.46 
#> 3 Water.Temp     0.926     0.303     3.05 
#> 4 Acid.Conc.    -0.128     0.129    -0.992
augment(r)

#> # A tibble: 21 x 10
#>    stack.loss Air.Flow Water.Temp Acid.Conc. .fitted .resid   .hat .sigma
#>         <dbl>    <dbl>      <dbl>      <dbl>   <dbl>  <dbl>  <dbl>  <dbl>
#>  1         42       80         27         89    38.9  3.05  0.327    3.32
#>  2         37       80         27         88    39.1 -2.08  0.343    3.39
#>  3         37       75         25         90    32.8  4.18  0.155    3.26
#>  4         28       62         24         87    21.5  6.50  0.0713   3.01
#>  5         18       62         22         87    19.6 -1.65  0.0562   3.42
#>  6         18       62         23         87    20.6 -2.57  0.0835   3.38
#>  7         19       62         24         93    20.7 -1.73  0.230    3.42
#>  8         20       62         24         93    20.7 -0.731 0.230    3.44
#>  9         15       58         23         87    17.3 -2.25  0.155    3.40
#> 10         14       58         18         80    13.5  0.481 0.213    3.45
#> # … with 11 more rows, and 2 more variables: .cooksd <dbl>, .std.resid <dbl>
…
