Augment data with information from a(n) poLCA object — augment.poLCA • broom
…
#>  5 B            1       1  0.670      0.0489
#>  6 B            2       1  0.0602     0.0649
#>  7 B            1       2  0.330      0.0489
#>  8 B            2       2  0.940      0.0649
#>  9 C            1       1  0.646      0.0482
#> 10 C            2       1  0.0735     0.0642
#> 11 C            1       2  0.354      0.0482
#> 12 C            2       2  0.927      0.0642
#> 13 D            1       1  0.868      0.0379
#> 14 D            2       1  0.231      0.0929
#> 15 D            1       2  0.132      0.0379
#> 16 D            2       2  0.769      0.0929
augment(M1)

#> # A tibble: 216 x 7
#>        A     B     C     D X.Intercept. .class .probability
#>    <dbl> <dbl> <dbl> <dbl>        <dbl>  <int>        <dbl>
#>  1     2     2     2     2            1      2        0.959
#>  2     2     2     2     2            1      2        0.959
#>  3     2     2     2     2            1      2        0.959
#>  4     2     2     2     2            1      2        0.959
#>  5     2     2     2     2            1      2        0.959
#>  6     2     2     2     2            1      2        0.959
#>  7     2     2     2     2            1      2        0.959
#>  8     2     2     2     2            1      2        0.959
#>  9     2     2     2     2            1      2        0.959
#> 10     2     2     2     2            1      2        0.959
#> # … with 206 more rows
…
## Three-class model with a single covariate.

data(election)
f2a <- cbind(
  MORALG, CARESG, KNOWG, LEADG, DISHONG, INTELG,
  MORALB, CARESB, KNOWB, LEADB, DISHONB, INTELB
) ~ PARTY
nes2a <- poLCA(f2a, election, nclass = 3, nrep = 5, verbose = FALSE)

td <- tidy(nes2a)
td

#> # A tibble: 144 x 5
#>    variable class outcome           estimate std.error
#>    <chr>    <int> <fct>                <dbl>     <dbl>
#>  1 MORALG       1 1 Extremely well    0.137    0.0182 
#>  2 MORALG       2 1 Extremely well    0.108    0.0175 
#>  3 MORALG       3 1 Extremely well    0.622    0.0309 
#>  4 MORALG       1 2 Quite well        0.668    0.0247 
#>  5 MORALG       2 2 Quite well        0.383    0.0274 
#>  6 MORALG       3 2 Quite well        0.335    0.0293 
#>  7 MORALG       1 3 Not too well      0.180    0.0208 
#>  8 MORALG       2 3 Not too well      0.304    0.0253 
#>  9 MORALG       3 3 Not too well      0.0172   0.00841
#> 10 MORALG       1 4 Not well at all   0.0143   0.00680
#> # … with 134 more rows
…
au <- augment(nes2a)
au

#> # A tibble: 1,300 x 16
#>    MORALG  CARESG  KNOWG  LEADG DISHONG INTELG MORALB CARESB KNOWB LEADB DISHONB
#>    <fct>   <fct>   <fct>  <fct> <fct>   <fct>  <fct>  <fct>  <fct> <fct> <fct>  
#>  1 3 Not … 1 Extr… 2 Qui… 2 Qu… 3 Not … 2 Qui… 1 Ext… 1 Ext… 2 Qu… 2 Qu… 4 Not …
#>  2 1 Extr… 2 Quit… 2 Qui… 1 Ex… 3 Not … 2 Qui… 2 Qui… 2 Qui… 2 Qu… 3 No… 3 Not …
#>  3 2 Quit… 2 Quit… 2 Qui… 2 Qu… 2 Quit… 2 Qui… 2 Qui… 3 Not… 2 Qu… 2 Qu… 3 Not …
#>  4 2 Quit… 4 Not … 2 Qui… 3 No… 2 Quit… 2 Qui… 1 Ext… 1 Ext… 2 Qu… 2 Qu… 3 Not …
#>  5 2 Quit… 2 Quit… 2 Qui… 2 Qu… 3 Not … 2 Qui… 3 Not… 4 Not… 4 No… 4 No… 3 Not …
#>  6 2 Quit… 2 Quit… 2 Qui… 3 No… 4 Not … 2 Qui… 2 Qui… 3 Not… 2 Qu… 2 Qu… 3 Not …
#>  7 1 Extr… 1 Extr… 1 Ext… 1 Ex… 4 Not … 1 Ext… 2 Qui… 4 Not… 2 Qu… 3 No… 3 Not …
#>  8 2 Quit… 2 Quit… 2 Qui… 2 Qu… 3 Not … 2 Qui… 3 Not… 2 Qui… 2 Qu… 2 Qu… 3 Not …
#>  9 2 Quit… 2 Quit… 2 Qui… 2 Qu… 3 Not … 2 Qui… 2 Qui… 2 Qui… 2 Qu… 3 No… 2 Quit…
#> 10 2 Quit… 3 Not … 2 Qui… 2 Qu… 3 Not … 2 Qui… 2 Qui… 4 Not… 2 Qu… 4 No… 2 Quit…
#> # … with 1,290 more rows, and 5 more variables: INTELB <fct>,
#> #   X.Intercept. <dbl>, PARTY <dbl>, .class <int>, .probability <dbl>
count(au, .class)

#> # A tibble: 3 x 2
#>   .class     n
#>    <int> <int>
#> 1      1   496
#> 2      2   444
#> 3      3   360

# if the original data is provided, it leads to NAs in new columns
# for rows that weren't predicted
au2 <- augment(nes2a, data = election)
au2

#> # A tibble: 1,785 x 20
#>    MORALG  CARESG  KNOWG  LEADG DISHONG INTELG MORALB CARESB KNOWB LEADB DISHONB
#>    <fct>   <fct>   <fct>  <fct> <fct>   <fct>  <fct>  <fct>  <fct> <fct> <fct>  
#>  1 3 Not … 1 Extr… 2 Qui… 2 Qu… 3 Not … 2 Qui… 1 Ext… 1 Ext… 2 Qu… 2 Qu… 4 Not …
#>  2 4 Not … 3 Not … 4 Not… 3 No… 2 Quit… 2 Qui… NA     NA     2 Qu… 3 No… NA     
#>  3 1 Extr… 2 Quit… 2 Qui… 1 Ex… 3 Not … 2 Qui… 2 Qui… 2 Qui… 2 Qu… 3 No… 3 Not …
#>  4 2 Quit… 2 Quit… 2 Qui… 2 Qu… 2 Quit… 2 Qui… 2 Qui… 3 Not… 2 Qu… 2 Qu… 3 Not …
#>  5 2 Quit… 4 Not … 2 Qui… 3 No… 2 Quit… 2 Qui… 1 Ext… 1 Ext… 2 Qu… 2 Qu… 3 Not …
#>  6 2 Quit… 3 Not … 3 Not… 2 Qu… 2 Quit… 2 Qui… 2 Qui… NA     3 No… 2 Qu… 2 Quit…
#>  7 2 Quit… NA      2 Qui… 2 Qu… 4 Not … 2 Qui… NA     3 Not… 2 Qu… 2 Qu… 4 Not …
#>  8 2 Quit… 2 Quit… 2 Qui… 2 Qu… 3 Not … 2 Qui… 3 Not… 4 Not… 4 No… 4 No… 3 Not …
#>  9 2 Quit… 2 Quit… 2 Qui… 3 No… 4 Not … 2 Qui… 2 Qui… 3 Not… 2 Qu… 2 Qu… 3 Not …
#> 10 1 Extr… 1 Extr… 1 Ext… 1 Ex… 4 Not … 1 Ext… 2 Qui… 4 Not… 2 Qu… 3 No… 3 Not …
#> # … with 1,775 more rows, and 9 more variables: INTELB <fct>, VOTE3 <dbl>,
#> #   AGE <dbl>, EDUC <dbl>, GENDER <dbl>, PARTY <dbl>, .class <int>,
#> #   .probability <dbl>, .rownames <chr>
…
