Augment data with information from a(n) felm object — augment.felm • broom
…
result_felm <- felm(v2 ~ v3, DT)
tidy(result_felm)
#> # A tibble: 2 x 5
#>   term        estimate std.error statistic  p.value
#>   <chr>          <dbl>     <dbl>     <dbl>    <dbl>
#> 1 (Intercept)  367902.    53533.      6.87 5.89e-10
#> 2 v3             1681.      930.      1.81 7.38e- 2
augment(result_felm)
#> # A tibble: 100 x 4
#>        v2     v3 .fitted   .resid
#>     <int>  <dbl>   <dbl>    <dbl>
#>  1 954279 92.8   523955.  430324.
#>  2 163605 19.2   400129. -236524.
#>  3 156404 95.3   528149. -371745.
#>  4 477648 87.5   514997.  -37349.
#>  5  45239 95.0   527649. -482410.
#>  6 578305 53.2   457298.  121007.
#>  7 264022 19.3   400305. -136283.
#>  8 148408 33.6   424354. -275946.
#>  9 360434  0.404 368582.   -8148.
#> 10 884671 91.9   522427.  362244.
#> # … with 90 more rows
…
#>  4 id.3   557776.    73529.     7.59    0.000000366    19     1
#>  5 id.4   375976.    71351.     5.27    0.0000240      23     1
#>  6 id.5   411353.    81937.     5.02    0.000105       17     1
#>  7 v1.1   -99914.    71209.    -1.40    1.82           16     1
#>  8 v1.2   -81178.    79232.    -1.02    1.68           15     1
#>  9 v1.3        0         0    NaN     NaN              31     1
#> 10 v1.4   -10660.    90314.    -0.118   1.09           15     1
#> 11 v1.5    -7811.    66144.    -0.118   1.09           23     1
tidy(result_felm, robust = TRUE)
#> # A tibble: 1 x 5
#>   term  estimate std.error statistic p.value
#>   <chr>    <dbl>     <dbl>     <dbl>   <dbl>
#> 1 v3       1514.      959.      1.58   0.118
augment(result_felm)
#> # A tibble: 100 x 6
#>        v2     v3    id    v1 .fitted   .resid
#>     <int>  <dbl> <int> <int>   <dbl>    <dbl>
#>  1 954279 92.8       4     3 516568.  437711.
#>  2 163605 19.2       4     3 405009. -241404.
#>  3 156404 95.3       4     4 509687. -353283.
#>  4 477648 87.5       1     2 491179.  -13531.
#>  5  45239 95.0       4     1 419982. -374743.
#>  6 578305 53.2       2     1 245597.  332708.
#>  7 264022 19.3       4     3 405168. -141146.
#>  8 148408 33.6       1     3 490694. -342286.
#>  9 360434  0.404     3     4 547728. -187294.
#> 10 884671 91.9       1     5 571240.  313431.
#> # … with 90 more rows

v1 <- DT$v1
v2 <- DT$v2
v3 <- DT$v3
id <- DT$id
result_felm <- felm(v2 ~ v3 | id + v1)

tidy(result_felm)
#> # A tibble: 1 x 5
#>   term  estimate std.error statistic p.value
#>   <chr>    <dbl>     <dbl>     <dbl>   <dbl>
#> 1 v3       1514.      923.      1.64   0.104
augment(result_felm)
#> # A tibble: 100 x 6
#>        v2     v3    id    v1 .fitted   .resid
#>     <int>  <dbl> <int> <int>   <dbl>    <dbl>
#>  1 954279 92.8       4     3 516568.  437711.
#>  2 163605 19.2       4     3 405009. -241404.
#>  3 156404 95.3       4     4 509687. -353283.
#>  4 477648 87.5       1     2 491179.  -13531.
#>  5  45239 95.0       4     1 419982. -374743.
#>  6 578305 53.2       2     1 245597.  332708.
#>  7 264022 19.3       4     3 405168. -141146.
#>  8 148408 33.6       1     3 490694. -342286.
#>  9 360434  0.404     3     4 547728. -187294.
#> 10 884671 91.9       1     5 571240.  313431.
#> # … with 90 more rows
…
