Augment data with information from a(n) nls object — augment.nls • broom
…
  .residThe difference between fitted and observed values.

    Examples

n <- nls(mpg ~ k * e ^ wt, data = mtcars, start = list(k = 1, e = 2))

tidy(n)
#> # A tibble: 2 x 5
#>   term  estimate std.error statistic  p.value
#>   <chr>    <dbl>     <dbl>     <dbl>    <dbl>
#> 1 k       49.7      3.79        13.1 5.96e-14
#> 2 e        0.746    0.0199      37.5 8.86e-27
augment(n)
#> # A tibble: 32 x 3
#>      mpg    wt .fitted
#>    <dbl> <dbl>   <dbl>
#>  1  21    2.62    23.0
#>  2  21    2.88    21.4
#>  3  22.8  2.32    25.1
#>  4  21.4  3.22    19.3
#>  5  18.7  3.44    18.1
#>  6  18.1  3.46    18.0
#>  7  14.3  3.57    17.4
#>  8  24.4  3.19    19.5
#>  9  22.8  3.15    19.7
#> 10  19.2  3.44    18.1
#> # … with 22 more rows
…
