Augment data with information from a(n) fixest object — augment.fixest • broom
…
#> # A tibble: 1 x 5
#>   term         estimate std.error statistic       p.value
#>   <chr>           <dbl>     <dbl>     <dbl>         <dbl>
#> 1 log(dist_km)    -2.17     0.154     -14.1 0.00000000119
glance(gravity)

#> # A tibble: 1 x 9
#>   r.squared adj.r.squared within.r.squared pseudo.r.squared sigma  nobs     AIC
#>       <dbl>         <dbl>            <dbl>            <dbl> <dbl> <int>   <dbl>
#> 1     0.706         0.705            0.219               NA  1.74 38325 151481.
#> # … with 2 more variables: BIC <dbl>, logLik <dbl>
augment(gravity, trade)

#> # A tibble: 38,325 x 9
#>    .rownames Destination Origin Product  Year dist_km    Euros .fitted  .resid
#>    <chr>     <fct>       <fct>    <int> <dbl>   <dbl>    <dbl>   <dbl>   <dbl>
#>  1 1         LU          BE           1  2007    140.  2966697    14.1  0.812 
#>  2 2         BE          LU           1  2007    140.  6755030    13.0  2.75  
#>  3 3         LU          BE           2  2007    140. 57078782    16.9  0.924 
#>  4 4         BE          LU           2  2007    140.  7117406    15.8 -0.0470
#>  5 5         LU          BE           3  2007    140. 17379821    16.3  0.378 
#>  6 6         BE          LU           3  2007    140.  2622254    15.2 -0.402 
#>  7 7         LU          BE           4  2007    140. 64867588    17.4  0.595 
#>  8 8         BE          LU           4  2007    140. 10731757    16.3 -0.0937
#>  9 9         LU          BE           5  2007    140.   330702    14.1 -1.37  
#> 10 10        BE          LU           5  2007    140.     7706    13.0 -4.02  
#> # … with 38,315 more rows
…
#> # A tibble: 1 x 5
#>   term         estimate std.error statistic  p.value
#>   <chr>           <dbl>     <dbl>     <dbl>    <dbl>
#> 1 log(dist_km)    -1.53     0.116     -13.2 7.89e-40
glance(gravity_pois)

#> # A tibble: 1 x 9
#>   r.squared adj.r.squared within.r.squared pseudo.r.squared sigma  nobs     AIC
#>       <dbl>         <dbl>            <dbl>            <dbl> <dbl> <int>   <dbl>
#> 1        NA            NA               NA            0.764    NA 38325 1.40e12
#> # … with 2 more variables: BIC <dbl>, logLik <dbl>
augment(gravity_pois, trade)

#> # A tibble: 38,325 x 9
#>    .rownames Destination Origin Product  Year dist_km    Euros .fitted    .resid
#>    <chr>     <fct>       <fct>    <int> <dbl>   <dbl>    <dbl>   <dbl>     <dbl>
#>  1 1         LU          BE           1  2007    140.  2966697    16.0   -6.06e6
#>  2 2         BE          LU           1  2007    140.  6755030    15.4    1.97e6
#>  3 3         LU          BE           2  2007    140. 57078782    17.4    2.00e7
#>  4 4         BE          LU           2  2007    140.  7117406    16.8   -1.26e7
#>  5 5         LU          BE           3  2007    140. 17379821    16.7   -1.00e4
#>  6 6         BE          LU           3  2007    140.  2622254    16.0   -6.60e6
#>  7 7         LU          BE           4  2007    140. 64867588    17.5    2.64e7
#>  8 8         BE          LU           4  2007    140. 10731757    16.8   -9.64e6
#>  9 9         LU          BE           5  2007    140.   330702    14.5   -1.64e6
#> 10 10        BE          LU           5  2007    140.     7706    13.9   -1.04e6
#> # … with 38,315 more rows
…
