Glance at a(n) plm object — glance.plm • broom
…
#> # A tibble: 4 x 7
#>   term      estimate std.error statistic   p.value conf.low conf.high
#>   <chr>        <dbl>     <dbl>     <dbl>     <dbl>    <dbl>     <dbl>
#> 1 log(pcap) -0.0261   0.0290      -0.902 3.68e-  1 -0.0739    0.0216 
#> 2 log(pc)    0.292    0.0251      11.6   7.08e- 29  0.251     0.333  
#> 3 log(emp)   0.768    0.0301      25.5   2.02e-104  0.719     0.818  
#> 4 unemp     -0.00530  0.000989    -5.36  1.11e-  7 -0.00692  -0.00367

augment(zz)

#> # A tibble: 816 x 7
#>    `log(gsp)` `log(pcap)` `log(pc)` `log(emp)` unemp     .fitted .resid      
#>    <pseries>  <pseries>   <pseries> <pseries>  <pseries>   <dbl> <pseries>   
#>  1 10.25478   9.617981    10.48553  6.918201   4.7          10.3 -0.046561413
#>  2 10.28790   9.648720    10.52675  6.929419   5.2          10.3 -0.030640422
#>  3 10.35147   9.678618    10.56283  6.977561   4.7          10.4 -0.016454312
#>  4 10.41721   9.705418    10.59873  7.034828   3.9          10.4 -0.008726974
#>  5 10.42671   9.726910    10.64679  7.064588   5.5          10.5 -0.027084312
#>  6 10.42240   9.759401    10.69130  7.052202   7.7          10.4 -0.022368930
#>  7 10.48470   9.783175    10.82420  7.095893   6.8          10.5 -0.036587629
#>  8 10.53111   9.804326    10.84125  7.146142   7.4          10.6 -0.030020604
#>  9 10.59573   9.824430    10.87055  7.197810   6.3          10.6 -0.018942497
#> 10 10.62082   9.845937    10.90643  7.216709   7.1          10.6 -0.014057170
#> # … with 806 more rows
…
