Glance at a(n) gmm object — glance.gmm • broom
…
## APT test with Fama-French factors and GMM

f1 <- zm
f2 <- Finance[1:300, "hml"] - rf
f3 <- Finance[1:300, "smb"] - rf
h <- cbind(f1, f2, f3)
res2 <- gmm(z ~ f1 + f2 + f3, x = h)

td2 <- tidy(res2, conf.int = TRUE)
td2
#> # A tibble: 40 x 7
#>    term             estimate std.error statistic p.value conf.low conf.high
#>    <chr>               <dbl>     <dbl>     <dbl>   <dbl>    <dbl>     <dbl>
#>  1 WMK_(Intercept)  -0.0240     0.0548   -0.438    0.662  -0.131     0.0834
#>  2 UIS_(Intercept)   0.0723     0.127     0.567    0.570  -0.177     0.322 
#>  3 ORB_(Intercept)   0.114      0.212     0.534    0.593  -0.303     0.530 
#>  4 MAT_(Intercept)   0.0694     0.0979    0.709    0.478  -0.122     0.261 
#>  5 ABAX_(Intercept)  0.0668     0.275     0.242    0.808  -0.473     0.606 
#>  6 T_(Intercept)     0.0195     0.0745    0.262    0.793  -0.126     0.165 
#>  7 EMR_(Intercept)   0.0217     0.0538    0.404    0.687  -0.0837    0.127 
#>  8 JCS_(Intercept)   0.0904     0.154     0.586    0.558  -0.212     0.393 
#>  9 VOXX_(Intercept) -0.00706    0.179    -0.0394   0.969  -0.359     0.344 
#> 10 ZOOM_(Intercept) -0.189      0.215    -0.878    0.380  -0.610     0.233 
#> # … with 30 more rows
…
