Tidy a(n) binDesign object — tidy.binDesign • broom
…
  powerPower achieved for given value of n.

    Examples

library(binGroup)
des <- binDesign(nmax = 300, delta = 0.06,
                 p.hyp = 0.1, power = .8)

glance(des)
#> # A tibble: 1 x 4
#>   power     n power.reached maxit
#>   <dbl> <int> <lgl>         <int>
#> 1 0.805   240 TRUE            238
tidy(des)
#> # A tibble: 238 x 2
#>        n     power
#>    <int>     <dbl>
#>  1     3 0.000064 
#>  2     4 0.000248 
#>  3     5 0.000602 
#>  4     6 0.00117  
#>  5     7 0.0000813
#>  6     8 0.000157 
#>  7     9 0.000274 
#>  8    10 0.000443 
#>  9    11 0.000673 
#> 10    12 0.0000640
#> # … with 228 more rows
…
