Tidy a(n) margins object — tidy.margins • broom
…
#> # A tibble: 1 x 8
#>   null.deviance df.null logLik   AIC   BIC deviance df.residual  nobs
#>           <dbl>   <int>  <dbl> <dbl> <dbl>    <dbl>       <int> <int>
#> 1          43.2      31  -4.92  17.8  23.7     9.84          28    32
if (FALSE) augment(marg_log) ## Not supported.
augment(mod_log) ## But can get the same info by running on the underlying model.

#> # A tibble: 32 x 11
#>    .rownames       am   cyl    hp    wt .fitted  .resid .std.resid   .hat .sigma
#>    <chr>        <dbl> <dbl> <dbl> <dbl>   <dbl>   <dbl>      <dbl>  <dbl>  <dbl>
#>  1 Mazda RX4        1     6   110  2.62  2.24    0.449      0.529  0.278   0.595
#>  2 Mazda RX4 W…     1     6   110  2.88 -0.0912  1.22       1.51   0.352   0.529
#>  3 Datsun 710       1     4    93  2.32  3.46    0.249      0.262  0.0960  0.602
#>  4 Hornet 4 Dr…     0     6   110  3.22 -3.20   -0.282     -0.297  0.0945  0.601
#>  5 Hornet Spor…     0     8   175  3.44 -2.17   -0.466     -0.527  0.220   0.595
#>  6 Valiant          0     6   105  3.46 -5.61   -0.0856    -0.0866 0.0221  0.604
#>  7 Duster 360       0     8   245  3.57 -1.07   -0.766     -0.941  0.337   0.576
#>  8 Merc 240D        0     4    62  3.19 -5.51   -0.0897    -0.0915 0.0376  0.603
#>  9 Merc 230         0     4    95  3.15 -4.07   -0.184     -0.196  0.122   0.603
#> 10 Merc 280         0     6   123  3.44 -4.84   -0.126     -0.128  0.0375  0.603
#> # … with 22 more rows, and 1 more variable: .cooksd <dbl>
…
