Tidy a(n) confusionMatrix object — tidy.confusionMatrix • broom
…
# multiclass example

six_class_sample1 <- as.factor(sample(letters[1:6], 100, TRUE))
six_class_sample2 <- as.factor(sample(letters[1:6], 100, TRUE))

six_class_cm <- caret::confusionMatrix(
  six_class_sample1,
  six_class_sample2
)

tidy(six_class_cm)
#> # A tibble: 69 x 6
#>    term        class estimate conf.low conf.high p.value
#>    <chr>       <chr>    <dbl>    <dbl>     <dbl>   <dbl>
#>  1 accuracy    <NA>    0.2       0.127     0.292   0.795
#>  2 kappa       <NA>    0.0351   NA        NA      NA    
#>  3 mcnemar     <NA>   NA        NA        NA       0.873
#>  4 sensitivity a       0.2      NA        NA      NA    
#>  5 sensitivity b       0.286    NA        NA      NA    
#>  6 sensitivity c       0.133    NA        NA      NA    
#>  7 sensitivity d       0.133    NA        NA      NA    
#>  8 sensitivity e       0.231    NA        NA      NA    
#>  9 sensitivity f       0.217    NA        NA      NA    
#> 10 specificity a       0.888    NA        NA      NA    
#> # … with 59 more rows
…
