Tidy a(n) pyears object — tidy.pyears • broom
…
  eventobserved number of events

    Examples

library(survival)

temp.yr  <- tcut(mgus$dxyr, 55:92, labels=as.character(55:91))
temp.age <- tcut(mgus$age, 34:101, labels=as.character(34:100))
ptime <- ifelse(is.na(mgus$pctime), mgus$futime, mgus$pctime)
pstat <- ifelse(is.na(mgus$pctime), 0, 1)
pfit <- pyears(Surv(ptime/365.25, pstat) ~ temp.yr + temp.age + sex,  mgus,
               data.frame=TRUE)
tidy(pfit)
#> # A tibble: 1,752 x 6
#>    temp.yr temp.age sex     pyears     n event
#>    <fct>   <fct>    <fct>    <dbl> <dbl> <dbl>
#>  1 71      34       female 0.00274     1     0
#>  2 68      35       female 0.00274     1     0
#>  3 72      35       female 0.00274     1     0
#>  4 69      36       female 0.00274     1     0
#>  5 73      36       female 0.00274     1     0
#>  6 69      37       female 0.00274     1     0
#>  7 70      37       female 0.00274     1     0
#>  8 74      37       female 0.00274     1     0
#>  9 70      38       female 0.00274     1     0
#> 10 71      38       female 0.00274     1     0
#> # … with 1,742 more rows
glance(pfit)
#> # A tibble: 1 x 3
#>   total offtable  nobs
#>   <dbl>    <dbl> <int>
#> 1  8.32    0.727   241

# if data.frame argument is not given, different information is present in
# output
pfit2 <- pyears(Surv(ptime/365.25, pstat) ~ temp.yr + temp.age + sex,  mgus)
tidy(pfit2)
#> # A tibble: 37 x 402
#>    pyears.34.female pyears.35.female pyears.36.female pyears.37.female
#>               <dbl>            <dbl>            <dbl>            <dbl>
#>  1                0                0                0                0
#>  2                0                0                0                0
#>  3                0                0                0                0
#>  4                0                0                0                0
#>  5                0                0                0                0
#>  6                0                0                0                0
#>  7                0                0                0                0
#>  8                0                0                0                0
#>  9                0                0                0                0
#> 10                0                0                0                0
#> # … with 27 more rows, and 398 more variables: pyears.38.female <dbl>,
#> #   pyears.39.female <dbl>, pyears.40.female <dbl>, pyears.41.female <dbl>,
#> #   pyears.42.female <dbl>, pyears.43.female <dbl>, pyears.44.female <dbl>,
#> #   pyears.45.female <dbl>, pyears.46.female <dbl>, pyears.47.female <dbl>,
#> #   pyears.48.female <dbl>, pyears.49.female <dbl>, pyears.50.female <dbl>,
#> #   pyears.51.female <dbl>, pyears.52.female <dbl>, pyears.53.female <dbl>,
#> #   pyears.54.female <dbl>, pyears.55.female <dbl>, pyears.56.female <dbl>,
#> #   pyears.57.female <dbl>, pyears.58.female <dbl>, pyears.59.female <dbl>,
#> #   pyears.60.female <dbl>, pyears.61.female <dbl>, pyears.62.female <dbl>,
…
