Tidy a(n) rcorr object — tidy.rcorr • broom
…
mat <- replicate(52, rnorm(100))
# add some NAs
mat[sample(length(mat), 2000)] <- NA
# also column names
colnames(mat) <- c(LETTERS, letters)

rc <- rcorr(mat)

td <- tidy(rc)
td
#> # A tibble: 1,326 x 5
#>    column1 column2 estimate     n p.value
#>    <chr>   <chr>      <dbl> <int>   <dbl>
#>  1 A       B        0.0670     36   0.698
#>  2 A       C        0.196      38   0.239
#>  3 B       C        0.172      37   0.309
#>  4 A       D       -0.0397     36   0.818
#>  5 B       D       -0.00762    31   0.968
#>  6 C       D        0.250      42   0.110
#>  7 A       E        0.224      36   0.189
#>  8 B       E        0.0700     35   0.690
#>  9 C       E        0.211      46   0.159
#> 10 D       E        0.147      40   0.364
#> # … with 1,316 more rows
…
