Tidy a(n) prcomp object — tidy.prcomp • broom
…
    stats::prcomp(), svd_tidiers

Other svd tidiers: 
augment.prcomp(),
tidy_irlba(),
tidy_svd()

    Examples

pc <- prcomp(USArrests, scale = TRUE)

# information about rotation
tidy(pc)

#> # A tibble: 200 x 3
#>    row        PC  value
#>    <chr>   <dbl>  <dbl>
#>  1 Alabama     1 -0.976
#>  2 Alabama     2  1.12 
#>  3 Alabama     3 -0.440
#>  4 Alabama     4  0.155
#>  5 Alaska      1 -1.93 
#>  6 Alaska      2  1.06 
#>  7 Alaska      3  2.02 
#>  8 Alaska      4 -0.434
#>  9 Arizona     1 -1.75 
#> 10 Arizona     2 -0.738
#> # … with 190 more rows

# information about samples (states)
tidy(pc, "samples")

#> # A tibble: 200 x 3
#>    row        PC  value
#>    <chr>   <dbl>  <dbl>
#>  1 Alabama     1 -0.976
#>  2 Alabama     2  1.12 
#>  3 Alabama     3 -0.440
#>  4 Alabama     4  0.155
#>  5 Alaska      1 -1.93 
#>  6 Alaska      2  1.06 
#>  7 Alaska      3  2.02 
#>  8 Alaska      4 -0.434
#>  9 Arizona     1 -1.75 
#> 10 Arizona     2 -0.738
#> # … with 190 more rows
…
au <- augment(pc, data = USArrests)
au

#> # A tibble: 50 x 9
#>    .rownames   Murder Assault UrbanPop  Rape .fittedPC1 .fittedPC2 .fittedPC3
#>    <chr>        <dbl>   <int>    <int> <dbl>      <dbl>      <dbl>      <dbl>
#>  1 Alabama       13.2     236       58  21.2    -0.976      1.12      -0.440 
#>  2 Alaska        10       263       48  44.5    -1.93       1.06       2.02  
#>  3 Arizona        8.1     294       80  31      -1.75      -0.738      0.0542
#>  4 Arkansas       8.8     190       50  19.5     0.140      1.11       0.113 
#>  5 California     9       276       91  40.6    -2.50      -1.53       0.593 
#>  6 Colorado       7.9     204       78  38.7    -1.50      -0.978      1.08  
#>  7 Connecticut    3.3     110       77  11.1     1.34      -1.08      -0.637 
#>  8 Delaware       5.9     238       72  15.8    -0.0472    -0.322     -0.711 
#>  9 Florida       15.4     335       80  31.9    -2.98       0.0388    -0.571 
#> 10 Georgia       17.4     211       60  25.8    -1.62       1.27      -0.339 
#> # … with 40 more rows, and 1 more variable: .fittedPC4 <dbl>
…
