Tidy a(n) summary_emm object — tidy.summary_emm • broom
…
  statisticT-ratio statistic or F-ratio statistic

    Examples

library(emmeans)
# linear model for sales of oranges per day
oranges_lm1 <- lm(sales1 ~ price1 + price2 + day + store, data = oranges)

# reference grid; see vignette("basics", package = "emmeans")
oranges_rg1 <- ref_grid(oranges_lm1)
td <- tidy(oranges_rg1)
td

#> # A tibble: 36 x 9
#>    price1 price2 day   store estimate std.error    df statistic   p.value
#>     <dbl>  <dbl> <chr> <chr>    <dbl>     <dbl> <dbl>     <dbl>     <dbl>
#>  1   51.2   48.6 1     1         2.92      2.72    23      1.07 0.294    
#>  2   51.2   48.6 2     1         3.85      2.70    23      1.42 0.168    
#>  3   51.2   48.6 3     1        11.0       2.53    23      4.35 0.000237 
#>  4   51.2   48.6 4     1         6.10      2.65    23      2.30 0.0309   
#>  5   51.2   48.6 5     1        12.8       2.44    23      5.23 0.0000261
#>  6   51.2   48.6 6     1         8.75      2.79    23      3.14 0.00459  
#>  7   51.2   48.6 1     2         4.96      2.38    23      2.09 0.0482   
#>  8   51.2   48.6 2     2         5.89      2.34    23      2.52 0.0190   
#>  9   51.2   48.6 3     2        13.1       2.42    23      5.41 0.0000172
#> 10   51.2   48.6 4     2         8.14      2.35    23      3.46 0.00212  
#> # … with 26 more rows
…
