…
# load data
data(churn)

# fit model
r <- roc(churn$predictions, churn$labels)

# summarize with tidiers + visualization
td <- tidy(r)
td
#> # A tibble: 220 × 3
#>    cutoff     fpr   tpr
#>     <dbl>   <dbl> <dbl>
#>  1  1     0       0    
#>  2  1     0.00262 0.164
#>  3  0.972 0.00350 0.164
#>  4  0.968 0.00350 0.182
#>  5  0.964 0.00350 0.189
#>  6  0.96  0.00350 0.201
#>  7  0.932 0.00437 0.201
#>  8  0.91  0.00437 0.208
#>  9  0.908 0.00525 0.208
#> 10  0.902 0.00525 0.214
#> # ℹ 210 more rows
…
