Tidy a(n) poLCA object — tidy.poLCA • broom
…
#>  4 A            2       2  0.714      0.0393
#>  5 B            1       1  0.0602     0.0649
#>  6 B            2       1  0.670      0.0489
#>  7 B            1       2  0.940      0.0649
#>  8 B            2       2  0.330      0.0489
#>  9 C            1       1  0.0735     0.0642
#> 10 C            2       1  0.646      0.0482
#> 11 C            1       2  0.927      0.0642
#> 12 C            2       2  0.354      0.0482
#> 13 D            1       1  0.231      0.0929
#> 14 D            2       1  0.868      0.0379
#> 15 D            1       2  0.769      0.0929
#> 16 D            2       2  0.132      0.0379
augment(M1)
#> # A tibble: 216 x 7
#>        A     B     C     D X.Intercept. .class .probability
#>    <dbl> <dbl> <dbl> <dbl>        <dbl>  <int>        <dbl>
#>  1     2     2     2     2            1      1        0.959
#>  2     2     2     2     2            1      1        0.959
#>  3     2     2     2     2            1      1        0.959
#>  4     2     2     2     2            1      1        0.959
#>  5     2     2     2     2            1      1        0.959
#>  6     2     2     2     2            1      1        0.959
#>  7     2     2     2     2            1      1        0.959
#>  8     2     2     2     2            1      1        0.959
#>  9     2     2     2     2            1      1        0.959
#> 10     2     2     2     2            1      1        0.959
#> # … with 206 more rows
…
