…
# fit model
m <- Mclust(points)

# summarize model fit with tidiers
tidy(m)
#> # A tibble: 3 × 6
#>   component  size proportion variance mean.x1 mean.x2
#>       <int> <int>      <dbl>    <dbl>   <dbl>   <dbl>
#> 1         1   101      0.335     1.12  5.01     -1.04
#> 2         2   150      0.503     1.12  0.0594    1.00
#> 3         3    49      0.161     1.12 -3.20     -2.06
augment(m, points)
#> # A tibble: 300 × 4
#>       x1     x2 .class .uncertainty
#>    <dbl>  <dbl> <fct>         <dbl>
#>  1  6.91 -2.74  1          3.98e-11
#>  2  6.14 -2.45  1          1.99e- 9
#>  3  4.24 -0.946 1          1.47e- 4
#>  4  3.54  0.287 1          2.94e- 2
#>  5  3.91  0.408 1          7.48e- 3
#>  6  5.30 -1.58  1          4.22e- 7
#>  7  5.01 -1.77  1          1.06e- 6
#>  8  6.16 -1.68  1          7.64e- 9
#>  9  7.13 -2.17  1          4.16e-11
#> 10  5.24 -2.42  1          1.16e- 7
#> # ℹ 290 more rows
…
