Augment data with information from a(n) spatialreg object — augment.sarlm • broom
…
#> To access larger datasets in this package, install the
#> spDataLarge package with: `install.packages('spDataLarge',
#> repos='https://nowosad.github.io/drat/', type='source')`
#> Loading required package: sf
#> Linking to GEOS 3.8.0, GDAL 3.0.4, PROJ 6.3.1; sf_use_s2() is TRUE
#> Loading required package: sp
#> 
#> Attaching package: ‘spdep’
#> The following objects are masked from ‘package:spatialreg’:
#> 
#>     get.ClusterOption, get.VerboseOption, get.ZeroPolicyOption,
#>     get.coresOption, get.mcOption, set.ClusterOption,
#>     set.VerboseOption, set.ZeroPolicyOption, set.coresOption,
#>     set.mcOption
#> # A tibble: 49 × 6
#>    `(Intercept)`   INC HOVAL  CRIME .fitted .resid
#>            <dbl> <dbl> <dbl>  <dbl>   <dbl>  <dbl>
#>  1             1 21.2   44.6 18.8      22.2  -3.37
#>  2             1  4.48  33.2 32.4      46.4 -14.0 
#>  3             1 11.3   37.1 38.4      40.4  -2.00
#>  4             1  8.44  75    0.178    37.5 -37.3 
#>  5             1 19.5   80.5 15.7      13.5   2.25
#>  6             1 16.0   26.4 30.6      34.4  -3.74
#>  7             1 11.3   23.2 50.7      44.1   6.60
#>  8             1 16.0   28.8 26.1      39.0 -12.9 
#>  9             1  9.87  18   48.6      51.5  -2.93
#> 10             1 13.6   96.4 34.0      15.8  18.2 
#> # … with 39 more rows
…
