…
d <- data.frame(y, x)
mod_betamfx <- betamfx(y ~ x | x, data = d)

tidy(mod_betamfx, conf.int = TRUE)
#> # A tibble: 1 × 8
#>   term  atmean estimate std.error statistic p.value conf.low conf.high
#>   <chr> <lgl>     <dbl>     <dbl>     <dbl>   <dbl>    <dbl>     <dbl>
#> 1 x     TRUE     0.0226   0.00801      2.82 0.00483  0.00686    0.0383

# Compare with the naive model coefficients of the equivalent betareg call (not run)
# tidy(betamfx(y ~ x | x, data = d), conf.int = TRUE)

augment(mod_betamfx)
#> # A tibble: 1,000 × 4
#>        y      x .fitted   .cooksd
#>    <dbl>  <dbl>   <dbl>     <dbl>
#>  1 0.951  0.586   0.809 0.000189 
#>  2 0.714  0.709   0.811 0.0000993
#>  3 0.999 -0.109   0.793 0.000273 
#>  4 0.998 -0.453   0.785 0.000334 
#>  5 0.999  0.606   0.809 0.000342 
#>  6 0.562 -1.82    0.751 0.000878 
#>  7 0.999  0.630   0.810 0.000348 
#>  8 0.999 -0.276   0.789 0.000294 
#>  9 0.744 -0.284   0.789 0.0000134
#> 10 0.999 -0.919   0.774 0.000551 
#> # ℹ 990 more rows
…
