…
tidy(crime_sar, conf.int = TRUE)
#> # A tibble: 4 × 7
#>   term        estimate std.error statistic  p.value conf.low conf.high
#>   <chr>          <dbl>     <dbl>     <dbl>    <dbl>    <dbl>     <dbl>
#> 1 rho            0.431    0.118       3.66 2.50e- 4    0.200    0.662 
#> 2 (Intercept)   45.1      7.18        6.28 3.37e-10   31.0     59.1   
#> 3 INC           -1.03     0.305      -3.38 7.23e- 4   -1.63    -0.434 
#> 4 HOVAL         -0.266    0.0885     -3.00 2.66e- 3   -0.439   -0.0925
glance(crime_sar)
#> # A tibble: 1 × 6
#>   r.squared   AIC   BIC deviance logLik  nobs
#>       <dbl> <dbl> <dbl>    <dbl>  <dbl> <int>
#> 1     0.652  375.  384.    4679.  -182.    49
augment(crime_sar)
#> # A tibble: 49 × 6
#>    `(Intercept)`   INC HOVAL  CRIME .fitted .resid
#>            <dbl> <dbl> <dbl>  <dbl>   <dbl>  <dbl>
#>  1             1 21.2   44.6 18.8      22.6  -3.84
#>  2             1  4.48  33.2 32.4      46.6 -14.2 
#>  3             1 11.3   37.1 38.4      41.4  -2.97
#>  4             1  8.44  75    0.178    37.9 -37.7 
#>  5             1 19.5   80.5 15.7      14.2   1.54
#>  6             1 16.0   26.4 30.6      34.3  -3.66
#>  7             1 11.3   23.2 50.7      44.7   5.99
#>  8             1 16.0   28.8 26.1      38.4 -12.3 
#>  9             1  9.87  18   48.6      51.7  -3.12
#> 10             1 13.6   96.4 34.0      16.3  17.7 
#> # ℹ 39 more rows
…
tidy(crime_sem, conf.int = TRUE)
#> # A tibble: 4 × 7
#>   term        estimate std.error statistic   p.value conf.low conf.high
#>   <chr>          <dbl>     <dbl>     <dbl>     <dbl>    <dbl>     <dbl>
#> 1 (Intercept)   59.9      5.37       11.2  0           49.4      70.4  
#> 2 INC           -0.941    0.331      -2.85 0.00441     -1.59     -0.293
#> 3 HOVAL         -0.302    0.0905     -3.34 0.000836    -0.480    -0.125
#> 4 lambda         0.562    0.134       4.20 0.0000271    0.299     0.824
glance(crime_sem)
#> # A tibble: 1 × 6
#>   r.squared   AIC   BIC deviance logLik  nobs
#>       <dbl> <dbl> <dbl>    <dbl>  <dbl> <int>
#> 1     0.658  377.  386.    4683.  -183.    49
augment(crime_sem)
#> # A tibble: 49 × 6
#>    `(Intercept)`   INC HOVAL  CRIME .fitted  .resid
#>            <dbl> <dbl> <dbl>  <dbl>   <dbl>   <dbl>
#>  1             1 21.2   44.6 18.8      22.5  -3.70 
#>  2             1  4.48  33.2 32.4      44.9 -12.5  
#>  3             1 11.3   37.1 38.4      38.2   0.223
#>  4             1  8.44  75    0.178    35.0 -34.8  
#>  5             1 19.5   80.5 15.7      13.3   2.45 
#>  6             1 16.0   26.4 30.6      35.0  -4.33 
#>  7             1 11.3   23.2 50.7      42.3   8.41 
#>  8             1 16.0   28.8 26.1      39.4 -13.3  
#>  9             1  9.87  18   48.6      49.3  -0.721
#> 10             1 13.6   96.4 34.0      16.6  17.4  
#> # ℹ 39 more rows
…
#> # A tibble: 5 × 7
#>   term        estimate std.error statistic   p.value conf.low conf.high
#>   <chr>          <dbl>     <dbl>     <dbl>     <dbl>    <dbl>     <dbl>
#> 1 rho            0.368    0.197      1.87    6.13e-2  -0.0174     0.754
#> 2 (Intercept)   47.8      9.90       4.83    1.40e-6  28.4       67.2  
#> 3 INC           -1.03     0.326     -3.14    1.67e-3  -1.67      -0.386
#> 4 HOVAL         -0.282    0.0900    -3.13    1.76e-3  -0.458     -0.105
#> 5 lambda         0.167    0.297      0.562   5.74e-1  -0.415      0.748
glance(crime_sac)
#> # A tibble: 1 × 6
#>   r.squared   AIC   BIC deviance logLik  nobs
#>       <dbl> <dbl> <dbl>    <dbl>  <dbl> <int>
#> 1     0.652  376.  388.    4685.  -182.    49
augment(crime_sac)
#> # A tibble: 49 × 6
#>    `(Intercept)`   INC HOVAL  CRIME .fitted .resid
#>            <dbl> <dbl> <dbl>  <dbl>   <dbl>  <dbl>
#>  1             1 21.2   44.6 18.8      22.2  -3.37
#>  2             1  4.48  33.2 32.4      46.4 -14.0 
#>  3             1 11.3   37.1 38.4      40.4  -2.00
#>  4             1  8.44  75    0.178    37.5 -37.3 
#>  5             1 19.5   80.5 15.7      13.5   2.25
#>  6             1 16.0   26.4 30.6      34.4  -3.74
#>  7             1 11.3   23.2 50.7      44.1   6.60
#>  8             1 16.0   28.8 26.1      39.0 -12.9 
#>  9             1  9.87  18   48.6      51.5  -2.93
#> 10             1 13.6   96.4 34.0      15.8  18.2 
#> # ℹ 39 more rows
```
