…
glance(mod)
#> # A tibble: 1 × 4
#>     AIC   BIC logLik    df.residual
#>   <dbl> <dbl> <logLik>        <int>
#> 1  768.  778. -376.2099          17

augment(mod, selenium)
#> # A tibble: 25 × 7
#>     type  conc total  dead .fitted  .resid    .cooksd
#>    <dbl> <dbl> <dbl> <dbl>   <dbl>   <dbl>      <dbl>
#>  1     1     0   151     3   0      0.0199 0         
#>  2     1   100   146    40   0.199  0.0748 0.0000909 
#>  3     1   200   116    31   0.414 -0.146  0.000104  
#>  4     1   300   159    85   0.565 -0.0302 0.00000516
#>  5     1   400   150   102   0.667  0.0133 0.00000220
#>  6     1   500   140   112   0.737  0.0633 0.0000720 
#>  7     2     0   141     2   0      0.0142 0         
#>  8     2   100   153    30   0.246 -0.0495 0.000168  
#>  9     2   200   142    59   0.369  0.0468 0.0000347 
#> 10     2   300   139    82   0.451  0.139  0.0000430 
#> # ℹ 15 more rows
```
