…
tidy(g, parametric = TRUE)
#> # A tibble: 3 × 5
#>   term        estimate std.error statistic p.value
#>   <chr>          <dbl>     <dbl>     <dbl>   <dbl>
#> 1 (Intercept)  16.7        9.83      1.70  0.101  
#> 2 am            4.37       1.56      2.81  0.00918
#> 3 qsec          0.0904     0.525     0.172 0.865  
glance(g)
#> # A tibble: 1 × 9
#>      df logLik   AIC   BIC deviance df.residual  nobs adj.r.squared
#>   <dbl>  <dbl> <dbl> <dbl>    <dbl>       <dbl> <int>         <dbl>
#> 1  5.36  -74.4  162.  171.     196.        26.6    32         0.797
#> # ℹ 1 more variable: npar <int>
augment(g)
#> # A tibble: 32 × 11
#>    .rownames        mpg    am  qsec    hp .fitted .se.fit .resid   .hat
#>    <chr>          <dbl> <dbl> <dbl> <dbl>   <dbl>   <dbl>  <dbl>  <dbl>
#>  1 Mazda RX4       21       1  16.5   110    24.3   1.03  -3.25  0.145 
#>  2 Mazda RX4 Wag   21       1  17.0   110    24.3   0.925 -3.30  0.116 
#>  3 Datsun 710      22.8     1  18.6    93    26.0   0.894 -3.22  0.109 
#>  4 Hornet 4 Drive  21.4     0  19.4   110    20.2   0.827  1.25  0.0930
#>  5 Hornet Sporta…  18.7     0  17.0   175    15.7   0.815  3.02  0.0902
#>  6 Valiant         18.1     0  20.2   105    20.7   0.914 -2.56  0.113 
#>  7 Duster 360      14.3     0  15.8   245    12.7   1.11   1.63  0.167 
#>  8 Merc 240D       24.4     0  20      62    25.0   1.45  -0.618 0.287 
#>  9 Merc 230        22.8     0  22.9    95    21.8   1.81   0.959 0.446 
#> 10 Merc 280        19.2     0  18.3   123    19.0   0.864  0.211 0.102 
#> # ℹ 22 more rows
#> # ℹ 2 more variables: .sigma <lgl>, .cooksd <dbl>
```
