…
augment(ivr)
#> # A tibble: 48 × 6
#>    .rownames `log(packs)`    income population .fitted  .resid
#>    <chr>            <dbl>     <dbl>      <dbl>   <dbl>   <dbl>
#>  1 49                4.62  83903280    4262731    4.56  0.0522
#>  2 50                4.71  45995496    2480121    4.59  0.124 
#>  3 51                4.28  88870496    4306908    4.56 -0.285 
#>  4 52                4.04 771470144   31493524    4.17 -0.131 
#>  5 53                4.41  92946544    3738061    4.56 -0.145 
#>  6 54                4.38 104315120    3265293    4.55 -0.177 
#>  7 55                4.82  18237436     718265    4.60  0.223 
#>  8 56                4.53 333525344   14185403    4.42  0.112 
#>  9 57                4.58 159800448    7188538    4.52  0.0591
#> 10 58                4.53  60170928    2840860    4.58 -0.0512
#> # ℹ 38 more rows
augment(ivr, data = CigarettesSW)
#> # A tibble: 96 × 11
#>    state year    cpi population packs  income   tax price  taxs .fitted
#>    <fct> <fct> <dbl>      <dbl> <dbl>   <dbl> <dbl> <dbl> <dbl>   <dbl>
#>  1 AL    1985   1.08    3973000  116.  4.60e7  32.5 102.   33.3    4.56
#>  2 AR    1985   1.08    2327000  129.  2.62e7  37   101.   37      4.59
#>  3 AZ    1985   1.08    3184000  105.  4.40e7  31   109.   36.2    4.56
#>  4 CA    1985   1.08   26444000  100.  4.47e8  26   108.   32.1    4.17
#>  5 CO    1985   1.08    3209000  113.  4.95e7  31    94.3  31      4.56
#>  6 CT    1985   1.08    3201000  109.  6.01e7  42   128.   51.5    4.55
#>  7 DE    1985   1.08     618000  144.  9.93e6  30   102.   30      4.60
#>  8 FL    1985   1.08   11352000  122.  1.67e8  37   115.   42.5    4.42
#>  9 GA    1985   1.08    5963000  127.  7.84e7  28    97.0  28.8    4.52
#> 10 IA    1985   1.08    2830000  114.  3.79e7  34   102.   37.9    4.58
#> # ℹ 86 more rows
#> # ℹ 1 more variable: .resid <dbl>
augment(ivr, newdata = CigarettesSW)
#> # A tibble: 96 × 10
#>    state year    cpi population packs  income   tax price  taxs .fitted
#>    <fct> <fct> <dbl>      <dbl> <dbl>   <dbl> <dbl> <dbl> <dbl>   <dbl>
#>  1 AL    1985   1.08    3973000  116.  4.60e7  32.5 102.   33.3    4.59
#>  2 AR    1985   1.08    2327000  129.  2.62e7  37   101.   37      4.60
#>  3 AZ    1985   1.08    3184000  105.  4.40e7  31   109.   36.2    4.59
#>  4 CA    1985   1.08   26444000  100.  4.47e8  26   108.   32.1    4.36
#>  5 CO    1985   1.08    3209000  113.  4.95e7  31    94.3  31      4.58
#>  6 CT    1985   1.08    3201000  109.  6.01e7  42   128.   51.5    4.58
#>  7 DE    1985   1.08     618000  144.  9.93e6  30   102.   30      4.61
#>  8 FL    1985   1.08   11352000  122.  1.67e8  37   115.   42.5    4.52
#>  9 GA    1985   1.08    5963000  127.  7.84e7  28    97.0  28.8    4.57
#> 10 IA    1985   1.08    2830000  114.  3.79e7  34   102.   37.9    4.59
#> # ℹ 86 more rows
…
