Glance at a(n) rq object — glance.rq • broom
…
tidy(mod2)
glance(mod2)
augment(mod2)

# varying tau to generate an rqs object
mod3 <- rq(stack.loss ~ stack.x, tau = c(.25, .5))

tidy(mod3)
augment(mod3)

# glance cannot handle rqs objects like `mod3`--use a purrr 
# `map`-based workflow instead

}
#> # A tibble: 42 × 5
#>    stack.loss stack.x[,"Air.Flo… [,"Water.Temp"] [,"Acid.Conc."] .tau     .resid
#>         <dbl>              <dbl>           <dbl>           <dbl> <chr>     <dbl>
#>  1         42                 80              27              89 0.25   1.10e+ 1
#>  2         42                 80              27              89 0.5    5.06e+ 0
#>  3         37                 80              27              88 0.25   6.00e+ 0
#>  4         37                 80              27              88 0.5   -1.42e-14
#>  5         37                 75              25              90 0.25   1.05e+ 1
#>  6         37                 75              25              90 0.5    5.43e+ 0
#>  7         28                 62              24              87 0.25   9.00e+ 0
#>  8         28                 62              24              87 0.5    7.63e+ 0
#>  9         18                 62              22              87 0.25   1.00e+ 0
#> 10         18                 62              22              87 0.5   -1.22e+ 0
#> # … with 32 more rows, and 1 more variable: .fitted <dbl>
…
