…
# summarize model fit with tidiers
tidy(mod)
#> # A tibble: 3 × 5
#>   term  estimate std.error statistic p.value
#>   <chr>    <dbl>     <dbl>     <dbl>   <dbl>
#> 1 Asym      9.94    0.0841     118.        0
#> 2 mid      12.0     0.0673     178.        0
#> 3 scal      1.99    0.0248      80.3       0
glance(mod)
#> # A tibble: 1 × 5
#>     tau logLik      AIC   BIC df.residual
#>   <dbl> <logLik>  <dbl> <dbl>       <int>
#> 1   0.5 -429.0842  864.  877.         497
augment(mod)
#> # A tibble: 500 × 4
#>        x      y .fitted   .resid
#>    <int>  <dbl>   <dbl>    <dbl>
#>  1     1 0.0382  0.0399 -0.00171
#>  2     2 0.0682  0.0657  0.00250
#>  3     3 0.101   0.108  -0.00728
#>  4     4 0.209   0.177   0.0315 
#>  5     5 0.303   0.289   0.0137 
#>  6     6 0.435   0.469  -0.0332 
#>  7     7 0.796   0.751   0.0448 
#>  8     8 1.28    1.18    0.0982 
#>  9     9 1.93    1.81    0.118  
#> 10    10 2.61    2.67   -0.0671 
#> # ℹ 490 more rows
```
