…
#>    size max.diss avg.diss diameter separation avg.width cluster
#>   <dbl>    <dbl>    <dbl>    <dbl>      <dbl>     <dbl> <fct>  
#> 1  3544   13865.     576.   15128.       93.6    0.711  1      
#> 2   412    3835.    1111.    5704.       93.2    0.398  2      
#> 3   236    3882.    1317.    5852.       93.2    0.516  3      
#> 4   139   42999.    5582.   46451.      151.     0.0843 4      
#> # ℹ 4 more variables: compounds <dbl>, input_fields <dbl>,
#> #   iterations <dbl>, num_pending <dbl>
glance(p)
#> # A tibble: 1 × 1
#>   avg.silhouette.width
#>                  <dbl>
#> 1                0.650
augment(p, x)
#> # A tibble: 4,331 × 5
#>    compounds input_fields iterations num_pending .cluster
#>        <dbl>        <dbl>      <dbl>       <dbl> <fct>   
#>  1       997          137         20           0 1       
#>  2        97          103         20           0 1       
#>  3       101           75         10           0 1       
#>  4        93           76         20           0 1       
#>  5       100           82         20           0 1       
#>  6       100           82         20           0 1       
#>  7       105           88         20           0 1       
#>  8        98           95         20           0 1       
#>  9       101           91         20           0 1       
#> 10        95           92         20           0 1       
#> # ℹ 4,321 more rows
…
