…
``` r
# load libraries for models and data
library(vars)
#> Loading required package: strucchange
#> Loading required package: urca

# load data
data("Canada", package = "vars")

# fit models
mod <- VAR(Canada, p = 1, type = "both")

# summarize model fit with tidiers
tidy(mod)
#> # A tibble: 24 × 6
#>    group term     estimate std.error statistic  p.value
#>    <chr> <chr>       <dbl>     <dbl>     <dbl>    <dbl>
#>  1 e     e.l1       1.24      0.0863    14.4   1.82e-23
#>  2 e     prod.l1    0.195     0.0361     5.39  7.49e- 7
#>  3 e     rw.l1     -0.0678    0.0283    -2.40  1.90e- 2
#>  4 e     U.l1       0.623     0.169      3.68  4.30e- 4
#>  5 e     const   -279.       75.2       -3.71  3.92e- 4
#>  6 e     trend     -0.0407    0.0197    -2.06  4.24e- 2
#>  7 prod  e.l1       0.0129    0.126      0.103 9.19e- 1
#>  8 prod  prod.l1    0.963     0.0527    18.3   9.43e-30
#>  9 prod  rw.l1     -0.0391    0.0412    -0.948 3.46e- 1
#> 10 prod  U.l1       0.211     0.247      0.855 3.95e- 1
#> # ℹ 14 more rows
…
