…
  data(carrots)

  Rfit <- glmrob(cbind(success, total - success) ~ logdose + block,
    family = binomial, data = carrots, method = "Mqle",
    control = glmrobMqle.control(tcc = 1.2)
  )

  tidy(Rfit)
  augment(Rfit)
}
#> # A tibble: 24 × 5
#>    cbind(success, total - succ…¹ [,""] logdose block .fitted .resid[,1]
#>                            <int> <int>   <dbl> <fct>   <dbl>      <dbl>
#>  1                            10    25    1.52 B1     -0.726      10.7 
#>  2                            16    26    1.64 B1     -0.972      17.0 
#>  3                             8    42    1.76 B1     -1.22        9.22
#>  4                             6    36    1.88 B1     -1.46        7.46
#>  5                             9    26    2    B1     -1.71       10.7 
#>  6                             9    33    2.12 B1     -1.96       11.0 
#>  7                             1    31    2.24 B1     -2.20        3.20
#>  8                             2    26    2.36 B1     -2.45        4.45
#>  9                            17    21    1.52 B2     -0.491      17.5 
#> 10                            10    30    1.64 B2     -0.737      10.7 
#> # ℹ 14 more rows
#> # ℹ abbreviated name: ¹​`cbind(success, total - success)`[,"success"]
#> # ℹ 1 more variable: .resid[2] <dbl>
```
