…
glance(fit)
#> # A tibble: 1 × 6
#>     edf   AIC   BIC logLik   df.residual  nobs
#>   <int> <dbl> <dbl> <logLik>       <dbl> <dbl>
#> 1     7  187.  203. -86.4162          65    72
augment(fit, type.predict = "prob")
#> # A tibble: 72 × 4
#>    rating temp  contact .fitted
#>    <ord>  <fct> <fct>     <dbl>
#>  1 2      cold  no       0.562 
#>  2 3      cold  no       0.209 
#>  3 3      cold  yes      0.435 
#>  4 4      cold  yes      0.0894
#>  5 4      warm  no       0.190 
#>  6 4      warm  no       0.190 
#>  7 5      warm  yes      0.286 
#>  8 5      warm  yes      0.286 
#>  9 1      cold  no       0.196 
#> 10 2      cold  no       0.562 
#> # ℹ 62 more rows
augment(fit, type.predict = "class")
#> # A tibble: 72 × 4
#>    rating temp  contact .fitted
#>    <ord>  <fct> <fct>   <fct>  
#>  1 2      cold  no      2      
#>  2 3      cold  no      2      
#>  3 3      cold  yes     3      
#>  4 4      cold  yes     3      
#>  5 4      warm  no      3      
#>  6 4      warm  no      3      
#>  7 5      warm  yes     4      
#>  8 5      warm  yes     4      
#>  9 1      cold  no      2      
#> 10 2      cold  no      2      
#> # ℹ 62 more rows
…
