…
  Number of observations used.

## Examples

``` r
# load libraries for models and data
library(muhaz)
library(survival)

# fit model
x <- muhaz(ovarian$futime, ovarian$fustat)

# summarize model fit with tidiers
tidy(x)
#> # A tibble: 101 × 2
#>     time estimate
#>    <dbl>    <dbl>
#>  1  0    0.000255
#>  2  7.44 0.000274
#>  3 14.9  0.000293
#>  4 22.3  0.000312
#>  5 29.8  0.000332
#>  6 37.2  0.000352
#>  7 44.6  0.000372
#>  8 52.1  0.000392
#>  9 59.5  0.000411
#> 10 67.0  0.000431
#> # ℹ 91 more rows
…
