…
# fit model
m <- lmRob(mpg ~ wt, data = mtcars)

# summarize model fit with tidiers
tidy(m)
#> # A tibble: 2 × 5
#>   term        estimate std.error statistic  p.value
#>   <chr>          <dbl>     <dbl>     <dbl>    <dbl>
#> 1 (Intercept)    35.6       3.58      9.93 5.37e-11
#> 2 wt             -4.91      1.09     -4.49 9.67e- 5
augment(m)
#> # A tibble: 32 × 4
#>    .rownames           mpg    wt .fitted
#>    <chr>             <dbl> <dbl>   <dbl>
#>  1 Mazda RX4          21    2.62    22.7
#>  2 Mazda RX4 Wag      21    2.88    21.4
#>  3 Datsun 710         22.8  2.32    24.2
#>  4 Hornet 4 Drive     21.4  3.22    19.8
#>  5 Hornet Sportabout  18.7  3.44    18.7
#>  6 Valiant            18.1  3.46    18.6
#>  7 Duster 360         14.3  3.57    18.0
#>  8 Merc 240D          24.4  3.19    19.9
#>  9 Merc 230           22.8  3.15    20.1
#> 10 Merc 280           19.2  3.44    18.7
#> # ℹ 22 more rows
…
