…
mat <- replicate(52, rnorm(100))

# add some NAs
mat[sample(length(mat), 2000)] <- NA

# also, column names
colnames(mat) <- c(LETTERS, letters)

# fit model
rc <- rcorr(mat)

# summarize model fit with tidiers  + visualization
td <- tidy(rc)
td
#> # A tibble: 1,326 × 5
#>    column1 column2 estimate     n p.value
#>    <chr>   <chr>      <dbl> <int>   <dbl>
#>  1 B       A        -0.0954    40   0.558
#>  2 C       A        -0.137     38   0.413
#>  3 C       B         0.184     37   0.275
#>  4 D       A        -0.186     37   0.270
#>  5 D       B         0.0817    35   0.641
#>  6 D       C        -0.0192    35   0.913
#>  7 E       A        -0.0454    42   0.775
#>  8 E       B         0.153     45   0.314
#>  9 E       C        -0.0436    43   0.781
#> 10 E       D        -0.213     34   0.226
#> # ℹ 1,316 more rows
…
