…
  Vector of frequencies at which the spectral density is estimated.

- spec:

  Vector (for univariate series) or matrix (for multivariate series) of
  estimates of the spectral density at frequencies corresponding to
  freq.

## Examples

``` r
spc <- spectrum(lh)

tidy(spc)
#> # A tibble: 24 × 2
#>      freq   spec
#>     <dbl>  <dbl>
#>  1 0.0208 0.0912
#>  2 0.0417 0.331 
#>  3 0.0625 0.836 
#>  4 0.0833 1.17  
#>  5 0.104  0.350 
#>  6 0.125  1.51  
#>  7 0.146  0.328 
#>  8 0.167  0.618 
#>  9 0.188  0.320 
#> 10 0.208  0.0675
#> # ℹ 14 more rows
…
