Tidy a(n) cv.glmnet object — tidy.cv.glmnet • broom
…
set.seed(27)

nobs <- 100
nvar <- 50
real <- 5

x <- matrix(rnorm(nobs * nvar), nobs, nvar)
beta <- c(rnorm(real, 0, 1), rep(0, nvar - real))
y <- c(t(beta) %*% t(x)) + rnorm(nvar, sd = 3)

cvfit1 <- cv.glmnet(x, y)

tidy(cvfit1)
#> # A tibble: 74 × 6
#>    lambda estimate std.error conf.low conf.high nzero
#>     <dbl>    <dbl>     <dbl>    <dbl>     <dbl> <int>
#>  1  1.45      17.4      2.28     15.1      19.7     0
#>  2  1.32      17.4      2.28     15.1      19.7     1
#>  3  1.20      17.2      2.22     15.0      19.5     1
#>  4  1.09      17.0      2.15     14.8      19.1     1
#>  5  0.997     16.8      2.09     14.7      18.9     1
#>  6  0.909     16.7      2.03     14.7      18.7     2
#>  7  0.828     16.7      1.99     14.7      18.6     3
#>  8  0.754     16.7      1.95     14.7      18.6     5
#>  9  0.687     16.8      1.93     14.8      18.7     7
#> 10  0.626     16.9      1.91     15.0      18.8     7
#> # ℹ 64 more rows
…
