…
# fit model
sexpfit <- survexp(
  futime ~ 1,
  rmap = list(
    sex = "male",
    year = accept.dt,
    age = (accept.dt - birth.dt)
  ),
  method = "conditional",
  data = jasa
)

# summarize model fit with tidiers
tidy(sexpfit)
#> # A tibble: 88 × 3
#>     time estimate n.risk
#>    <dbl>    <dbl>  <int>
#>  1     0    1        102
#>  2     1    1.000    102
#>  3     2    1.000     99
#>  4     4    1.000     96
#>  5     5    1.000     94
#>  6     7    1.000     92
#>  7     8    1.000     91
#>  8    10    1.000     90
#>  9    11    1.000     89
#> 10    15    1.000     88
#> # ℹ 78 more rows
…
