Tidy a(n) nlrq object — tidy.nlrq • broom
…
#> lambda = 0.9999613 
#> 108.4709 :   9.942629 11.992728  1.993136 
#> final  value 108.470919 
#> converged
#> lambda = 1 
#> 108.4709 :   9.942644 11.992737  1.993144 
#> final  value 108.470919 
#> converged
#> lambda = 1 
#> 108.4709 :   9.942644 11.992737  1.993144 
#> final  value 108.470919 
#> converged
#> lambda = 1 
#> 108.4709 :   9.942644 11.992737  1.993144 
#> # A tibble: 500 × 4
#>        x      y .fitted   .resid
#>    <int>  <dbl>   <dbl>    <dbl>
#>  1     1 0.0382  0.0399 -0.00171
#>  2     2 0.0682  0.0657  0.00250
#>  3     3 0.101   0.108  -0.00728
#>  4     4 0.209   0.177   0.0315 
#>  5     5 0.303   0.289   0.0137 
#>  6     6 0.435   0.469  -0.0332 
#>  7     7 0.796   0.751   0.0448 
#>  8     8 1.28    1.18    0.0982 
#>  9     9 1.93    1.81    0.118  
#> 10    10 2.61    2.67   -0.0671 
#> # … with 490 more rows
…
