Tidy a(n) lmrob object — tidy.lmrob • broom
…
data(carrots)

Rfit <- glmrob(cbind(success, total - success) ~ logdose + block,
  family = binomial, data = carrots, method = "Mqle",
  control = glmrobMqle.control(tcc = 1.2)
)

tidy(Rfit)
augment(Rfit)

}
#> # A tibble: 24 × 4
#>    `cbind(success, total - succe…`[,"success"] [,""] logdose block .fitted
#>                                          <int> <int>   <dbl> <fct>   <dbl>
#>  1                                          10    25    1.52 B1     -0.726
#>  2                                          16    26    1.64 B1     -0.972
#>  3                                           8    42    1.76 B1     -1.22 
#>  4                                           6    36    1.88 B1     -1.46 
#>  5                                           9    26    2    B1     -1.71 
#>  6                                           9    33    2.12 B1     -1.96 
#>  7                                           1    31    2.24 B1     -2.20 
#>  8                                           2    26    2.36 B1     -2.45 
#>  9                                          17    21    1.52 B2     -0.491
#> 10                                          10    30    1.64 B2     -0.737
#> # … with 14 more rows
…
