Tidy a(n) kde object — tidy.kde • broom
…
    Examples

# load libraries for models and data
library(ks)

# generate data
dat <- replicate(2, rnorm(100))
k <- kde(dat)

# summarize model fit with tidiers + visualization
td <- tidy(k)
td
#> # A tibble: 45,602 × 4
#>      obs variable value estimate
#>    <int> <chr>    <dbl>    <dbl>
#>  1     1 x1       -5.41        0
#>  2     2 x1       -5.34        0
#>  3     3 x1       -5.28        0
#>  4     4 x1       -5.22        0
#>  5     5 x1       -5.15        0
#>  6     6 x1       -5.09        0
#>  7     7 x1       -5.03        0
#>  8     8 x1       -4.96        0
#>  9     9 x1       -4.90        0
#> 10    10 x1       -4.84        0
#> # … with 45,592 more rows
…
# also works with 3 dimensions
dat3 <- replicate(3, rnorm(100))
k3 <- kde(dat3)

td3 <- tidy(k3)
td3
#> # A tibble: 397,953 × 4
#>      obs variable value estimate
#>    <int> <chr>    <dbl>    <dbl>
#>  1     1 x1       -4.77        0
#>  2     2 x1       -4.59        0
#>  3     3 x1       -4.41        0
#>  4     4 x1       -4.23        0
#>  5     5 x1       -4.05        0
#>  6     6 x1       -3.87        0
#>  7     7 x1       -3.69        0
#>  8     8 x1       -3.51        0
#>  9     9 x1       -3.33        0
#> 10    10 x1       -3.15        0
#> # … with 397,943 more rows
…
