…
Other lavaan tidiers:
[`glance.lavaan()`](https://broom.tidymodels.org/dev/reference/glance.lavaan.md)

## Examples

``` r
# load libraries for models and data
library(lavaan)

cfa.fit <- cfa("F =~ x1 + x2 + x3 + x4 + x5 + x6 + x7 + x8 + x9",
  data = HolzingerSwineford1939, group = "school"
)

tidy(cfa.fit)
#> # A tibble: 58 × 10
#>    term  op    block group estimate std.error statistic  p.value std.lv
#>    <chr> <chr> <int> <int>    <dbl>     <dbl>     <dbl>    <dbl>  <dbl>
#>  1 F =~… =~        1     1    1         0         NA    NA        0.567
#>  2 F =~… =~        1     1    0.333     0.190      1.76  7.89e-2  0.189
#>  3 F =~… =~        1     1    0.400     0.182      2.20  2.80e-2  0.227
#>  4 F =~… =~        1     1    1.66      0.280      5.92  3.28e-9  0.941
#>  5 F =~… =~        1     1    1.92      0.323      5.95  2.60e-9  1.09 
#>  6 F =~… =~        1     1    1.48      0.247      5.98  2.23e-9  0.837
#>  7 F =~… =~        1     1    0.453     0.173      2.61  8.96e-3  0.257
#>  8 F =~… =~        1     1    0.376     0.155      2.43  1.51e-2  0.213
#>  9 F =~… =~        1     1    0.422     0.159      2.66  7.80e-3  0.240
#> 10 x1 ~… ~~        1     1    1.07      0.127      8.47  0        1.07 
#> # ℹ 48 more rows
#> # ℹ 1 more variable: std.all <dbl>
```
