…
glance(fit)
#> # A tibble: 1 × 7
#>     edf logLik   AIC   BIC deviance df.residual  nobs
#>   <int>  <dbl> <dbl> <dbl>    <dbl>       <int> <int>
#> 1     8 -1740. 3495. 3539.    3479.        1673  1681
augment(fit, type.predict = "class")
#> # A tibble: 72 × 6
#>    Sat    Infl   Type      Cont  `(weights)` .fitted
#>    <ord>  <fct>  <fct>     <fct>       <int> <fct>  
#>  1 Low    Low    Tower     Low            21 Low    
#>  2 Medium Low    Tower     Low            21 Low    
#>  3 High   Low    Tower     Low            28 Low    
#>  4 Low    Medium Tower     Low            34 High   
#>  5 Medium Medium Tower     Low            22 High   
#>  6 High   Medium Tower     Low            36 High   
#>  7 Low    High   Tower     Low            10 High   
#>  8 Medium High   Tower     Low            11 High   
#>  9 High   High   Tower     Low            36 High   
#> 10 Low    Low    Apartment Low            61 Low    
#> # ℹ 62 more rows
…
