…
augment(mod_logmfx)
#> # A tibble: 32 × 11
#>    .rownames         am   cyl    hp    wt .fitted  .resid   .hat .sigma
#>    <chr>          <dbl> <dbl> <dbl> <dbl>   <dbl>   <dbl>  <dbl>  <dbl>
#>  1 Mazda RX4          1     6   110  2.62  2.24    0.449  0.278   0.595
#>  2 Mazda RX4 Wag      1     6   110  2.88 -0.0912  1.22   0.352   0.529
#>  3 Datsun 710         1     4    93  2.32  3.46    0.249  0.0960  0.602
#>  4 Hornet 4 Drive     0     6   110  3.22 -3.20   -0.282  0.0945  0.601
#>  5 Hornet Sporta…     0     8   175  3.44 -2.17   -0.466  0.220   0.595
#>  6 Valiant            0     6   105  3.46 -5.61   -0.0856 0.0221  0.604
#>  7 Duster 360         0     8   245  3.57 -1.07   -0.766  0.337   0.576
#>  8 Merc 240D          0     4    62  3.19 -5.51   -0.0897 0.0376  0.603
#>  9 Merc 230           0     4    95  3.15 -4.07   -0.184  0.122   0.603
#> 10 Merc 280           0     6   123  3.44 -4.84   -0.126  0.0375  0.603
#> # ℹ 22 more rows
#> # ℹ 2 more variables: .cooksd <dbl>, .std.resid <dbl>
…
# another example, this time using probit regression
mod_probmfx <- probitmfx(am ~ cyl + hp + wt, atmean = TRUE, data = mtcars)
#> Warning: glm.fit: fitted probabilities numerically 0 or 1 occurred

tidy(mod_probmfx, conf.int = TRUE)
#> # A tibble: 3 × 8
#>   term  atmean estimate std.error statistic p.value conf.low conf.high
#>   <chr> <lgl>     <dbl>     <dbl>     <dbl>   <dbl>    <dbl>     <dbl>
#> 1 cyl   TRUE    0.0616    0.112       0.548  0.583  -0.169     0.292  
#> 2 hp    TRUE    0.00383   0.00282     1.36   0.174  -0.00194   0.00960
#> 3 wt    TRUE   -1.06      0.594      -1.78   0.0753 -2.27      0.160  
augment(mod_probmfx)
#> # A tibble: 32 × 11
#>    .rownames         am   cyl    hp    wt .fitted  .resid   .hat .sigma
#>    <chr>          <dbl> <dbl> <dbl> <dbl>   <dbl>   <dbl>  <dbl>  <dbl>
#>  1 Mazda RX4          1     6   110  2.62   1.21   0.490  0.308   0.585
#>  2 Mazda RX4 Wag      1     6   110  2.88  -0.129  1.27   0.249   0.526
#>  3 Datsun 710         1     4    93  2.32   1.85   0.256  0.134   0.594
#>  4 Hornet 4 Drive     0     6   110  3.22  -1.92  -0.237  0.116   0.594
#>  5 Hornet Sporta…     0     8   175  3.44  -1.25  -0.474  0.236   0.587
#>  6 Valiant            0     6   105  3.46  -3.30  -0.0312 0.0111  0.596
#>  7 Duster 360         0     8   245  3.57  -0.595 -0.804  0.285   0.567
#>  8 Merc 240D          0     4    62  3.19  -3.31  -0.0304 0.0179  0.596
#>  9 Merc 230           0     4    95  3.15  -2.47  -0.116  0.130   0.596
#> 10 Merc 280           0     6   123  3.44  -2.85  -0.0662 0.0315  0.596
#> # ℹ 22 more rows
#> # ℹ 2 more variables: .cooksd <dbl>, .std.resid <dbl>
…
