…
tidy(gravity)
#> # A tibble: 1 × 5
#>   term         estimate std.error statistic p.value
#>   <chr>           <dbl>     <dbl>     <dbl>   <dbl>
#> 1 log(dist_km)    -2.17    0.0209     -104.       0
glance(gravity)
#> # A tibble: 1 × 9
#>   r.squared adj.r.squared within.r.squared pseudo.r.squared sigma  nobs
#>       <dbl>         <dbl>            <dbl>            <dbl> <dbl> <int>
#> 1     0.706         0.705            0.219               NA  1.74 38325
#> # ℹ 3 more variables: AIC <dbl>, BIC <dbl>, logLik <dbl>
augment(gravity, trade)
#> # A tibble: 38,325 × 9
#>    .rownames Destination Origin Product  Year dist_km    Euros .fitted
#>    <chr>     <fct>       <fct>    <int> <dbl>   <dbl>    <dbl>   <dbl>
#>  1 1         LU          BE           1  2007    140.  2966697    14.1
#>  2 2         BE          LU           1  2007    140.  6755030    13.0
#>  3 3         LU          BE           2  2007    140. 57078782    16.9
#>  4 4         BE          LU           2  2007    140.  7117406    15.8
#>  5 5         LU          BE           3  2007    140. 17379821    16.3
#>  6 6         BE          LU           3  2007    140.  2622254    15.2
#>  7 7         LU          BE           4  2007    140. 64867588    17.4
#>  8 8         BE          LU           4  2007    140. 10731757    16.3
#>  9 9         LU          BE           5  2007    140.   330702    14.1
#> 10 10        BE          LU           5  2007    140.     7706    13.0
#> # ℹ 38,315 more rows
#> # ℹ 1 more variable: .resid <dbl>
…
