…
# no FEs; same as lm()
est0 <- felm(Ozone ~ Temp + Wind + Solar.R, airquality)

# summarize model fit with tidiers
tidy(est0)
#> # A tibble: 4 × 5
#>   term        estimate std.error statistic       p.value
#>   <chr>          <dbl>     <dbl>     <dbl>         <dbl>
#> 1 (Intercept) -64.3      23.1        -2.79 0.00623      
#> 2 Temp          1.65      0.254       6.52 0.00000000242
#> 3 Wind         -3.33      0.654      -5.09 0.00000152   
#> 4 Solar.R       0.0598    0.0232      2.58 0.0112       
augment(est0)
#> # A tibble: 111 × 7
#>    .rownames Ozone  Temp  Wind Solar.R .fitted  .resid
#>    <chr>     <int> <int> <dbl>   <int>   <dbl>   <dbl>
#>  1 1            41    67   7.4     190   33.0    7.95 
#>  2 2            36    72   8       118   35.0    1.00 
#>  3 3            12    74  12.6     149   24.8  -12.8  
#>  4 4            18    62  11.5     313   18.5   -0.475
#>  5 7            23    65   8.6     299   32.3   -9.26 
#>  6 8            19    59  13.8      99   -6.95  25.9  
#>  7 9             8    61  20.1      19  -29.4   37.4  
#>  8 12           16    69   9.7     256   32.6  -16.6  
#>  9 13           11    66   9.2     290   31.4  -20.4  
#> 10 14           14    68  10.9     274   28.1  -14.1  
#> # ℹ 101 more rows
…
#> 3 Solar.R   0.0522    0.0237      2.21 0.0296     
tidy(est1, fe = TRUE)
#> # A tibble: 8 × 7
#>   term    estimate std.error statistic     p.value     N  comp
#>   <chr>      <dbl>     <dbl>     <dbl>       <dbl> <int> <dbl>
#> 1 Temp      1.88      0.341       5.50 0.000000274    NA    NA
#> 2 Wind     -3.11      0.660      -4.71 0.00000778     NA    NA
#> 3 Solar.R   0.0522    0.0237      2.21 0.0296         NA    NA
#> 4 Month.5 -74.2       4.23      -17.5  2.00           24     1
#> 5 Month.6 -89.0       6.91      -12.9  2.00            9     1
#> 6 Month.7 -83.0       4.06      -20.4  2              26     1
#> 7 Month.8 -78.4       4.32      -18.2  2.00           23     1
#> 8 Month.9 -90.2       3.85      -23.4  2              29     1
augment(est1)
#> # A tibble: 111 × 8
#>    .rownames Ozone  Temp  Wind Solar.R Month .fitted .resid
#>    <chr>     <int> <int> <dbl>   <int> <int>   <dbl>  <dbl>
#>  1 1            41    67   7.4     190     5   38.3    2.69
#>  2 2            36    72   8       118     5   42.1   -6.07
#>  3 3            12    74  12.6     149     5   33.1  -21.1 
#>  4 4            18    62  11.5     313     5   22.6   -4.62
#>  5 7            23    65   8.6     299     5   36.5  -13.5 
#>  6 8            19    59  13.8      99     5   -1.33  20.3 
#>  7 9             8    61  20.1      19     5  -21.3   29.3 
#>  8 12           16    69   9.7     256     5   38.4  -22.4 
#>  9 13           11    66   9.2     290     5   36.1  -25.1 
#> 10 14           14    68  10.9     274     5   33.7  -19.7 
#> # ℹ 101 more rows
…
