…
#>  5     4 -0.175  
#>  6     5 -0.150  
#>  7     6 -0.0210 
#>  8     7 -0.0203 
#>  9     8 -0.00420
#> 10     9 -0.136  
#> 11    10 -0.154  
#> 12    11 -0.0972 
#> 13    12  0.0490 
#> 14    13  0.120  
#> 15    14  0.0867 
#> 16    15  0.119  
#> 17    16  0.151  
tidy(ccf(mdeaths, fdeaths, plot = FALSE))
#> # A tibble: 31 × 2
#>       lag     acf
#>     <dbl>   <dbl>
#>  1 -1.25   0.0151
#>  2 -1.17   0.366 
#>  3 -1.08   0.615 
#>  4 -1      0.708 
#>  5 -0.917  0.622 
#>  6 -0.833  0.340 
#>  7 -0.75  -0.0245
#>  8 -0.667 -0.382 
#>  9 -0.583 -0.612 
#> 10 -0.5   -0.678 
#> # ℹ 21 more rows
…
