Tidy a(n) irlba object masquerading as list — tidy_irlba • broom
…
    Examples

library(modeldata)
data(hpc_data)

mat <- scale(as.matrix(hpc_data[, 2:5]))
s <- svd(mat)

tidy_u <- tidy(s, matrix = "u")
tidy_u
#> # A tibble: 17,324 × 3
#>      row    PC    value
#>    <int> <dbl>    <dbl>
#>  1     1     1  0.00403
#>  2     2     1 -0.00436
#>  3     3     1 -0.00196
#>  4     4     1 -0.00444
#>  5     5     1 -0.00437
#>  6     6     1 -0.00437
#>  7     7     1 -0.00431
#>  8     8     1 -0.00436
#>  9     9     1 -0.00434
#> 10    10     1 -0.00440
#> # ℹ 17,314 more rows
…
