…
# multiclass example
six_class_sample1 <- as.factor(sample(letters[1:6], 100, TRUE))
six_class_sample2 <- as.factor(sample(letters[1:6], 100, TRUE))

six_class_cm <- confusionMatrix(
  six_class_sample1,
  six_class_sample2
)

# summarize model fit with tidiers
tidy(six_class_cm)
#> # A tibble: 69 × 6
#>    term           class estimate conf.low conf.high p.value
#>    <chr>          <chr>    <dbl>    <dbl>     <dbl>   <dbl>
#>  1 accuracy       NA      0.2       0.127     0.292   0.795
#>  2 kappa          NA      0.0351   NA        NA      NA    
#>  3 mcnemar        NA     NA        NA        NA       0.873
#>  4 sensitivity    a       0.2      NA        NA      NA    
#>  5 specificity    a       0.888    NA        NA      NA    
#>  6 pos_pred_value a       0.308    NA        NA      NA    
#>  7 neg_pred_value a       0.816    NA        NA      NA    
#>  8 precision      a       0.308    NA        NA      NA    
#>  9 recall         a       0.2      NA        NA      NA    
#> 10 f1             a       0.242    NA        NA      NA    
#> # ℹ 59 more rows
…
