Tidy a(n) rcorr object — tidy.rcorr • broom
…
mat <- replicate(52, rnorm(100))

# add some NAs
mat[sample(length(mat), 2000)] <- NA

# also, column names
colnames(mat) <- c(LETTERS, letters)

# fit model
rc <- rcorr(mat)

# summarize model fit with tidiers  + visualization
td <- tidy(rc)
td
#> # A tibble: 1,326 × 5
#>    column1 column2 estimate     n p.value
#>    <chr>   <chr>      <dbl> <int>   <dbl>
#>  1 B       A        -0.0806    41 0.616  
#>  2 C       A        -0.194     38 0.242  
#>  3 C       B         0.0811    37 0.633  
#>  4 D       A        -0.451     37 0.00505
#>  5 D       B        -0.258     35 0.134  
#>  6 D       C        -0.183     35 0.292  
#>  7 E       A        -0.0593    42 0.709  
#>  8 E       B         0.0208    45 0.892  
#>  9 E       C        -0.228     44 0.136  
#> 10 E       D        -0.0134    34 0.940  
#> # ℹ 1,316 more rows
…
