…
## Examples

``` r
# load libraries for models and data
library(ks)

# generate data
dat <- replicate(2, rnorm(100))
k <- kde(dat)

# summarize model fit with tidiers + visualization
td <- tidy(k)
td
#> # A tibble: 45,602 × 4
#>      obs variable value estimate
#>    <int> <chr>    <dbl>    <dbl>
#>  1     1 x1       -4.75        0
#>  2     2 x1       -4.68        0
#>  3     3 x1       -4.62        0
#>  4     4 x1       -4.55        0
#>  5     5 x1       -4.49        0
#>  6     6 x1       -4.42        0
#>  7     7 x1       -4.36        0
#>  8     8 x1       -4.29        0
#>  9     9 x1       -4.23        0
#> 10    10 x1       -4.17        0
#> # ℹ 45,592 more rows
…
# also works with 3 dimensions
dat3 <- replicate(3, rnorm(100))
k3 <- kde(dat3)

td3 <- tidy(k3)
td3
#> # A tibble: 397,953 × 4
#>      obs variable value estimate
#>    <int> <chr>    <dbl>    <dbl>
#>  1     1 x1       -3.92        0
#>  2     2 x1       -3.76        0
#>  3     3 x1       -3.60        0
#>  4     4 x1       -3.45        0
#>  5     5 x1       -3.29        0
#>  6     6 x1       -3.13        0
#>  7     7 x1       -2.98        0
#>  8     8 x1       -2.82        0
#>  9     9 x1       -2.66        0
#> 10    10 x1       -2.51        0
#> # ℹ 397,943 more rows
```
