…
set.seed(1071)

# generate data
Z.index <- as.Date(sample(12450:12500, 10))
Z.data <- matrix(rnorm(30), ncol = 3)
colnames(Z.data) <- c("Aa", "Bb", "Cc")
Z <- zoo(Z.data, Z.index)

# summarize model fit with tidiers + visualization
tidy(Z)
#> # A tibble: 30 × 3
#>    index      series   value
#>    <date>     <chr>    <dbl>
#>  1 2004-02-02 Aa     -0.537 
#>  2 2004-02-02 Bb      0.746 
#>  3 2004-02-02 Cc     -0.634 
#>  4 2004-02-06 Aa     -0.586 
#>  5 2004-02-06 Bb     -0.0779
#>  6 2004-02-06 Cc      0.0397
#>  7 2004-02-08 Aa     -0.289 
#>  8 2004-02-08 Bb     -1.11  
#>  9 2004-02-08 Cc     -0.341 
#> 10 2004-02-12 Aa      1.85  
#> # ℹ 20 more rows
…
