…
z <- ts(matrix(rnorm(300), 100, 3), start = c(1961, 1), frequency = 12)
colnames(z) <- c("Aa", "Bb", "Cc")

tidy(z)
#> # A tibble: 300 × 3
#>    index series  value
#>    <dbl> <chr>   <dbl>
#>  1 1961  Aa     -0.773
#>  2 1961  Bb      0.855
#>  3 1961  Cc     -1.43 
#>  4 1961. Aa      0.933
#>  5 1961. Bb     -0.738
#>  6 1961. Cc     -2.55 
#>  7 1961. Aa      0.466
#>  8 1961. Bb      2.37 
#>  9 1961. Cc      1.22 
#> 10 1961. Aa     -1.08 
#> # ℹ 290 more rows
```
