Convert Statistical Analysis Objects into Tidy Data Frames • broom
…
glance() returns a tibble with exactly one row of goodness of fitness measures and related statistics. This is useful to check for model misspecification and to compare many models.

glance(fit)
#> # A tibble: 1 x 11
#>   r.squared adj.r.squared sigma statistic p.value    df logLik   AIC   BIC
#> *     <dbl>         <dbl> <dbl>     <dbl>   <dbl> <int>  <dbl> <dbl> <dbl>
#> 1     0.213         0.202 0.389      19.9 2.24e-8     3  -69.8  148.  160.
#> # ... with 2 more variables: deviance <dbl>, df.residual <int>

augment adds columns to a dataset, containing information such as fitted values, residuals or cluster assignments. All columns added to a dataset have . prefix to prevent existing columns from being overwritten.

augment(fit, data = iris)
#> # A tibble: 150 x 12
#>    Sepal.Length Sepal.Width Petal.Length Petal.Width Species .fitted
#>  *        <dbl>       <dbl>        <dbl>       <dbl> <fct>     <dbl>
#>  1          5.1         3.5          1.4         0.2 setosa     3.30
#>  2          4.9         3            1.4         0.2 setosa     3.30
#>  3          4.7         3.2          1.3         0.2 setosa     3.33
#>  4          4.6         3.1          1.5         0.2 setosa     3.27
#>  5          5           3.6          1.4         0.2 setosa     3.30
#>  6          5.4         3.9          1.7         0.4 setosa     3.30
#>  7          4.6         3.4          1.4         0.3 setosa     3.34
#>  8          5           3.4          1.5         0.2 setosa     3.27
#>  9          4.4         2.9          1.4         0.2 setosa     3.30
#> 10          4.9         3.1          1.5         0.1 setosa     3.24
#> # ... with 140 more rows, and 6 more variables: .se.fit <dbl>,
#> #   .resid <dbl>, .hat <dbl>, .sigma <dbl>, .cooksd <dbl>,
#> #   .std.resid <dbl>
…
