Adding tidiers to broom • broom
…
a data.frame containing both the original predictors and the original responses

a tibble containing both the the original predictors and the original responses

if not data argument is specified, augment should try to reconstruct the original data as much as possible from the model object. This may not always be possible, and often it will not be possible to recover columns not used by the model.

Any other inputs should result in an error.

Many augment methods will also provide an optional newdata argument that should also default to NULL. newdata should always precedence over data (you can check if newdata has been specified by checking whether not newdata still has the default NULL value).

Data given to the data argument must have both the original predictors and the original response. Data given to the newdata argument only needs to have the original predictors. This is important because there may be important information associated with training data that is not associated with test data, for example, leverages (.hat below) in the case in linear regression:

model <- lm(speed ~ dist, data = cars)
augment(model, data = cars)
#> # A tibble: 50 x 9
#>    speed  dist .fitted .se.fit  .resid   .hat .sigma   .cooksd .std.resid
#>  * <dbl> <dbl>   <dbl>   <dbl>   <dbl>  <dbl>  <dbl>     <dbl>      <dbl>
#>  1     4     2    8.62   0.844 -4.62   0.0716   3.11 0.0888       -1.52  
#>  2     4    10    9.94   0.729 -5.94   0.0534   3.06 0.106        -1.93  
#>  3     7     4    8.95   0.815 -1.95   0.0667   3.18 0.0146       -0.638 
#>  4     7    22   11.9    0.578 -4.93   0.0335   3.10 0.0437       -1.59  
#>  5     8    16   10.9    0.650 -2.93   0.0424   3.16 0.0200       -0.950 
#>  6     9    10    9.94   0.729 -0.940  0.0534   3.19 0.00264      -0.306 
#>  7    10    18   11.3    0.625 -1.26   0.0392   3.18 0.00340      -0.409 
#>  8    10    26   12.6    0.536 -2.59   0.0289   3.17 0.0103       -0.832 
#>  9    10    34   13.9    0.473 -3.91   0.0225   3.14 0.0181       -1.25  
#> 10    11    17   11.1    0.637 -0.0986 0.0407   3.19 0.0000216    -0.0319
#> # ... with 40 more rows
augment(model, newdata = cars)
#> # A tibble: 50 x 4
#>    speed  dist .fitted .se.fit
#>  * <dbl> <dbl>   <dbl>   <dbl>
#>  1     4     2    8.62   0.844
#>  2     4    10    9.94   0.729
#>  3     7     4    8.95   0.815
#>  4     7    22   11.9    0.578
#>  5     8    16   10.9    0.650
#>  6     9    10    9.94   0.729
#>  7    10    18   11.3    0.625
#>  8    10    26   12.6    0.536
#>  9    10    34   13.9    0.473
#> 10    11    17   11.1    0.637
#> # ... with 40 more rows
…
