• broom
…
## Warning: package 'dplyr' was built under R version 3.4.3

library(broom)

## Warning: package 'broom' was built under R version 3.4.4

set.seed(2014)
bootnls <- mtcars %>% bootstrap(100) %>%
    do(tidy(nls(mpg ~ k / wt + b, ., start=list(k=1, b=0))))

This produces a summary of each replication, combined into one data.frame:

bootnls

## # A tibble: 200 x 6
## # Groups:   replicate [100]
##    replicate term  estimate std.error statistic  p.value
##        <int> <chr>    <dbl>     <dbl>     <dbl>    <dbl>
##  1         1 k        46.6       4.03    11.6   1.34e-12
##  2         1 b         4.36      1.54     2.83  8.13e- 3
##  3         2 k        54.2       4.96    10.9   5.76e-12
##  4         2 b         1.00      1.90     0.530 6.00e- 1
##  5         3 k        43.3       3.56    12.1   4.22e-13
##  6         3 b         4.83      1.30     3.72  8.10e- 4
##  7         4 k        48.5       4.46    10.9   6.07e-12
##  8         4 b         3.51      1.69     2.08  4.64e- 2
##  9         5 k        52.6       5.66     9.29  2.47e-10
## 10         5 b         3.34      2.30     1.45  1.56e- 1
## # ... with 190 more rows
…
