• broom
…
regressions %>% augment(fit)

## # A tibble: 32 x 12
## # Groups:   cyl [3]
##      cyl    wt   mpg  qsec  gear  .fitted   .se.fit        .resid
##    <dbl> <dbl> <dbl> <dbl> <dbl>    <dbl>     <dbl>         <dbl>
##  1     4 2.320  22.8 18.61     4 2.463345 0.1418571 -0.1433447361
##  2     4 3.190  24.4 20.00     4 2.633560 0.1199552  0.5564398892
##  3     4 3.150  22.8 22.90     4 3.392781 0.2989223 -0.2427805952
##  4     4 2.200  32.4 19.47     4 1.864082 0.1738468  0.3359178471
##  5     4 1.615  30.4 18.52     4 1.821926 0.1475401 -0.2069261605
##  6     4 1.835  33.9 19.90     4 1.834495 0.2098610  0.0005049623
##  7     4 2.465  21.5 20.01     3 2.605569 0.2493871 -0.1405685584
##  8     4 1.935  27.3 18.90     4 2.157932 0.1045713 -0.2229316749
##  9     4 2.140  26.0 16.70     5 2.055149 0.2176428  0.0848514414
## 10     4 1.513  30.4 16.90     5 1.738420 0.2009845 -0.2254199999
## # ... with 22 more rows, and 4 more variables: .hat <dbl>, .sigma <dbl>,
## #   .cooksd <dbl>, .std.resid <dbl>
…
