kmeans with dplyr and broom • broom
…
These differing lengths have a deeper meaning when we want to tidy our dataset: they signify that each type of component communicates a different kind of information.

cluster (300 values) contains information about each point

centers, withinss and size (3 values) contain information about each cluster

totss, tot.withinss, betweenss, and iter (1 value) contain information about the full clustering

Which of these do we want to extract? There is no right answer: each of them may be interesting to an analyst. Because they communicate entirely different information (not to mention there’s no straightforward way to combine them), they are extracted by separate functions. augment adds the point classifications to the original dataset:

library(broom)

augment(kclust, points)

## # A tibble: 300 x 3
##       x1     x2 .cluster
##    <dbl>  <dbl> <fct>   
##  1  6.91 -2.74  2       
##  2  6.14 -2.45  2       
##  3  4.24 -0.946 2       
##  4  3.54  0.287 2       
##  5  3.91  0.408 2       
##  6  5.30 -1.58  2       
##  7  5.01 -1.77  2       
##  8  6.16 -1.68  2       
##  9  7.13 -2.17  2       
## 10  5.24 -2.42  2       
## # ... with 290 more rows
…
