Tidying method for the acf function — acf_tidiers • broom
…
# ccf
result <- ccf(mdeaths, fdeaths, plot=FALSE)
tidy(result)
#> # A tibble: 31 x 2
#>       lag     acf
#>     <dbl>   <dbl>
#>  1 -1.25   0.0151
#>  2 -1.17   0.366 
#>  3 -1.08   0.615 
#>  4 -1      0.708 
#>  5 -0.917  0.622 
#>  6 -0.833  0.340 
#>  7 -0.75  -0.0245
#>  8 -0.667 -0.382 
#>  9 -0.583 -0.612 
#> 10 -0.5   -0.678 
#> # ... with 21 more rows
…
