Augment data with information from a(n) ivreg object — augment.ivreg • broom
…
augment(ivr)
#> # A tibble: 48 x 6
#>    .rownames log.packs.    income population .fitted  .resid
#>    <chr>          <dbl>     <dbl>      <dbl>   <dbl>   <dbl>
#>  1 49              4.62  83903280    4262731    4.56  0.0522
#>  2 50              4.71  45995496    2480121    4.59  0.124 
#>  3 51              4.28  88870496    4306908    4.56 -0.285 
#>  4 52              4.04 771470144   31493524    4.17 -0.131 
#>  5 53              4.41  92946544    3738061    4.56 -0.145 
#>  6 54              4.38 104315120    3265293    4.55 -0.177 
#>  7 55              4.82  18237436     718265    4.60  0.223 
#>  8 56              4.53 333525344   14185403    4.42  0.112 
#>  9 57              4.58 159800448    7188538    4.52  0.0591
#> 10 58              4.53  60170928    2840860    4.58 -0.0512
#> # ... with 38 more rows
…
