Augment a(n) glmRob object — augment.glmRob • broom
…
    Examples

library(robust)
#> Loading required package: fit.models
m <- lmRob(mpg ~ wt, data = mtcars)

tidy(m)
#> # A tibble: 2 x 5
#>   term        estimate std.error statistic  p.value
#>   <chr>          <dbl>     <dbl>     <dbl>    <dbl>
#> 1 (Intercept)    35.6       3.58      9.93 5.37e-11
#> 2 wt             -4.91      1.09     -4.49 9.67e- 5
augment(m)
#> # A tibble: 32 x 6
#>    .rownames           mpg    wt .fitted .se.fit  .resid
#>  * <chr>             <dbl> <dbl>   <dbl>   <dbl>   <dbl>
#>  1 Mazda RX4          21    2.62    22.7   1.12  -1.68  
#>  2 Mazda RX4 Wag      21    2.88    21.4   1.00  -0.431 
#>  3 Datsun 710         22.8  2.32    24.2   1.32  -1.36  
#>  4 Hornet 4 Drive     21.4  3.22    19.8   0.957  1.64  
#>  5 Hornet Sportabout  18.7  3.44    18.7   1.00   0.0445
#>  6 Valiant            18.1  3.46    18.6   1.01  -0.457 
#>  7 Duster 360         14.3  3.57    18.0   1.06  -3.72  
#>  8 Merc 240D          24.4  3.19    19.9   0.955  4.52  
#>  9 Merc 230           22.8  3.15    20.1   0.955  2.72  
#> 10 Merc 280           19.2  3.44    18.7   1.00   0.545 
#> # ... with 22 more rows
…
