Glance at a(n) betareg object — glance.betareg • broom
…
augment(mod)
#> # A tibble: 32 x 6
#>    yield batch  temp .fitted .resid   .cooksd
#>  * <dbl> <fct> <dbl>   <dbl>  <dbl>     <dbl>
#>  1 0.122 1       205  0.101   1.59  0.0791   
#>  2 0.223 1       275  0.195   1.66  0.0917   
#>  3 0.347 1       345  0.343   0.211 0.00155  
#>  4 0.457 1       407  0.508  -2.88  0.606    
#>  5 0.08  2       218  0.0797  0.109 0.0000168
#>  6 0.131 2       273  0.137  -0.365 0.00731  
#>  7 0.266 2       347  0.263   0.260 0.00523  
#>  8 0.074 3       212  0.0943 -1.77  0.0805   
#>  9 0.182 3       272  0.167   1.02  0.0441   
#> 10 0.304 3       340  0.298   0.446 0.0170   
#> # ... with 22 more rows
…
