Tidying methods for lavaan models — lavaan_tidiers • broom
…
                data = HolzingerSwineford1939, group = "school")
 tidy(cfa.fit)
}
#> Loading required package: lavaan
#> This is lavaan 0.6-1
#> lavaan is BETA software! Please report any bugs.
#> 
#> Attaching package: 'lavaan'
#> The following object is masked from 'package:ks':
#> 
#>     vech
#> The following object is masked from 'package:psych':
#> 
#>     cor2cov
#> # A tibble: 58 x 13
#>    term     op    block group estimate std.error statistic  p.value conf.low
#>    <chr>    <chr> <int> <int>    <dbl>     <dbl>     <dbl>    <dbl>    <dbl>
#>  1 F =~ x1  =~        1     1    1         0         NA    NA         1     
#>  2 F =~ x2  =~        1     1    0.333     0.190      1.76  7.89e-2  -0.0385
#>  3 F =~ x3  =~        1     1    0.400     0.182      2.20  2.80e-2   0.0432
#>  4 F =~ x4  =~        1     1    1.66      0.280      5.92  3.28e-9   1.11  
#>  5 F =~ x5  =~        1     1    1.92      0.323      5.95  2.60e-9   1.29  
#>  6 F =~ x6  =~        1     1    1.48      0.247      5.98  2.23e-9   0.992 
#>  7 F =~ x7  =~        1     1    0.453     0.173      2.61  8.96e-3   0.113 
#>  8 F =~ x8  =~        1     1    0.376     0.155      2.43  1.51e-2   0.0726
#>  9 F =~ x9  =~        1     1    0.422     0.159      2.66  7.80e-3   0.111 
#> 10 x1 ~~ x1 ~~        1     1    1.07      0.127      8.47  0.        0.825 
#> # ... with 48 more rows, and 4 more variables: conf.high <dbl>, std.lv <dbl>,
#> #   std.all <dbl>, std.nox <dbl>
…
