Tidying methods for a nonlinear model — nls_tidiers • broom
…
nls() and summary.nls()

    Examples

n <- nls(mpg ~ k * e ^ wt, data = mtcars, start = list(k = 1, e = 2))

tidy(n)
#> # A tibble: 2 x 5
#>   term  estimate std.error statistic  p.value
#>   <chr>    <dbl>     <dbl>     <dbl>    <dbl>
#> 1 k       49.7      3.79        13.1 5.96e-14
#> 2 e        0.746    0.0199      37.5 8.86e-27
augment(n)
#> # A tibble: 32 x 4
#>      mpg    wt .fitted .resid
#>    <dbl> <dbl>   <dbl>  <dbl>
#>  1  21    2.62    23.0 -2.01 
#>  2  21    2.88    21.4 -0.352
#>  3  22.8  2.32    25.1 -2.33 
#>  4  21.4  3.22    19.3  2.08 
#>  5  18.7  3.44    18.1  0.611
#>  6  18.1  3.46    18.0  0.117
#>  7  14.3  3.57    17.4 -3.11 
#>  8  24.4  3.19    19.5  4.93 
#>  9  22.8  3.15    19.7  3.10 
#> 10  19.2  3.44    18.1  1.11 
#> # ... with 22 more rows
…
