Tidying methods for ordinal logistic regression models — tidy.polr • broom
…
#>     ranef, VarCorr
#> The following object is masked from 'package:dplyr':
#> 
#>     slice
#> # A tibble: 1 x 4
#>     edf logLik   AIC   BIC
#>   <dbl>  <dbl> <dbl> <dbl>
#> 1     7  -81.6  177.  193.
if (require(MASS)) {
  polr_mod <- polr(Sat ~ Infl + Type + Cont, weights = Freq, data = housing)
  tidy(polr_mod, exponentiate = TRUE, conf.int = TRUE)
  glance(polr_mod)
  augment(polr_mod, type.predict = "class")
}
#> # A tibble: 72 x 6
#>    Sat    Infl   Type      Cont  X.weights. .fitted
#>  * <ord>  <fct>  <fct>     <fct>      <int>   <dbl>
#>  1 Low    Low    Tower     Low           21       1
#>  2 Medium Low    Tower     Low           21       1
#>  3 High   Low    Tower     Low           28       1
#>  4 Low    Medium Tower     Low           34       3
#>  5 Medium Medium Tower     Low           22       3
#>  6 High   Medium Tower     Low           36       3
#>  7 Low    High   Tower     Low           10       3
#>  8 Medium High   Tower     Low           11       3
#>  9 High   High   Tower     Low           36       3
#> 10 Low    Low    Apartment Low           61       1
#> # ... with 62 more rows
…
