Tidying methods for an rlm (robust linear model) object — rlm_tidiers • broom
…
    Examples

library(MASS)

r <- rlm(stack.loss ~ ., stackloss)
tidy(r)
#> # A tibble: 4 x 4
#>   term        estimate std.error statistic
#>   <chr>          <dbl>     <dbl>     <dbl>
#> 1 (Intercept)  -41.0       9.81     -4.18 
#> 2 Air.Flow       0.829     0.111     7.46 
#> 3 Water.Temp     0.926     0.303     3.05 
#> 4 Acid.Conc.    -0.128     0.129    -0.992
augment(r)
#> # A tibble: 21 x 9
#>    stack.loss Air.Flow Water.Temp Acid.Conc. .fitted .se.fit .resid   .hat
#>  *      <dbl>    <dbl>      <dbl>      <dbl>   <dbl>   <dbl>  <dbl>  <dbl>
#>  1         42       80         27         89    38.9   1.34   3.05  0.327 
#>  2         37       80         27         88    39.1   1.38  -2.08  0.343 
#>  3         37       75         25         90    32.8   1.02   4.18  0.155 
#>  4         28       62         24         87    21.5   0.875  6.50  0.0713
#>  5         18       62         22         87    19.6   0.558 -1.65  0.0562
#>  6         18       62         23         87    20.6   0.679 -2.57  0.0835
#>  7         19       62         24         93    20.7   1.14  -1.73  0.230 
#>  8         20       62         24         93    20.7   1.14  -0.731 0.230 
#>  9         15       58         23         87    17.3   0.914 -2.25  0.155 
#> 10         14       58         18         80    13.5   1.09   0.481 0.213 
#> # ... with 11 more rows, and 1 more variable: .sigma <dbl>
…
