Tidying methods for rowwise_dfs from dplyr, for tidying each row and recombining the results — rowwise_df_tidiers • broom
…
regressions %>% tidy(mod)
#> # A tibble: 6 x 6
#> # Groups:   cyl [3]
#>     cyl        term  estimate std.error statistic      p.value
#>   <dbl>       <chr>     <dbl>     <dbl>     <dbl>        <dbl>
#> 1     4 (Intercept) 39.571196 4.3465820  9.103980 7.771511e-06
#> 2     4          wt -5.647025 1.8501185 -3.052251 1.374278e-02
#> 3     6 (Intercept) 28.408845 4.1843688  6.789278 1.054844e-03
#> 4     6          wt -2.780106 1.3349173 -2.082605 9.175766e-02
#> 5     8 (Intercept) 23.868029 3.0054619  7.941551 4.052705e-06
#> 6     8          wt -2.192438 0.7392393 -2.965803 1.179281e-02
regressions %>% augment(mod)
#> # A tibble: 32 x 10
#> # Groups:   cyl [3]
#>      cyl   mpg    wt  .fitted  .se.fit      .resid       .hat   .sigma
#>    <dbl> <dbl> <dbl>    <dbl>    <dbl>       <dbl>      <dbl>    <dbl>
#>  1     4  22.8 2.320 26.47010 1.006720 -3.67009741 0.09127118 3.261796
#>  2     4  24.4 3.190 21.55719 1.951521  2.84281457 0.34297508 3.309771
#>  3     4  22.8 3.150 21.78307 1.888462  1.01693356 0.32116829 3.507377
#>  4     4  32.4 2.200 27.14774 1.017163  5.25225956 0.09317454 2.947803
#>  5     4  30.4 1.615 30.45125 1.596671 -0.05125022 0.22958701 3.534359
#>  6     4  33.9 1.835 29.20890 1.305700  4.69109534 0.15353342 3.040129
#>  7     4  21.5 2.465 25.65128 1.058052 -4.15127874 0.10081613 3.177493
#>  8     4  27.3 1.935 28.64420 1.196043 -1.34420213 0.12882788 3.497551
#>  9     4  26.0 2.140 27.48656 1.040267 -1.48656195 0.09745541 3.490854
#> 10     4  30.4 1.513 31.02725 1.747377 -0.62724679 0.27497267 3.524811
#> # ... with 22 more rows, and 2 more variables: .cooksd <dbl>, .std.resid <dbl>
…
# we can also include the original dataset as a "data" argument
# to augment:
regressions <- mtcars %>%
    group_by(cyl) %>%
    do(mod = lm(mpg ~ wt, .), original = (.))

# this allows all the original columns to be included:
regressions %>% augment(mod)  # doesn't include all original
#> # A tibble: 32 x 10
#> # Groups:   cyl [3]
#>      cyl   mpg    wt  .fitted  .se.fit      .resid       .hat   .sigma
#>    <dbl> <dbl> <dbl>    <dbl>    <dbl>       <dbl>      <dbl>    <dbl>
#>  1     4  22.8 2.320 26.47010 1.006720 -3.67009741 0.09127118 3.261796
#>  2     4  24.4 3.190 21.55719 1.951521  2.84281457 0.34297508 3.309771
#>  3     4  22.8 3.150 21.78307 1.888462  1.01693356 0.32116829 3.507377
#>  4     4  32.4 2.200 27.14774 1.017163  5.25225956 0.09317454 2.947803
#>  5     4  30.4 1.615 30.45125 1.596671 -0.05125022 0.22958701 3.534359
#>  6     4  33.9 1.835 29.20890 1.305700  4.69109534 0.15353342 3.040129
#>  7     4  21.5 2.465 25.65128 1.058052 -4.15127874 0.10081613 3.177493
#>  8     4  27.3 1.935 28.64420 1.196043 -1.34420213 0.12882788 3.497551
#>  9     4  26.0 2.140 27.48656 1.040267 -1.48656195 0.09745541 3.490854
#> 10     4  30.4 1.513 31.02725 1.747377 -0.62724679 0.27497267 3.524811
#> # ... with 22 more rows, and 2 more variables: .cooksd <dbl>, .std.resid <dbl>
regressions %>% augment(mod, data = original)  # includes all original
#> # A tibble: 32 x 18
#> # Groups:   cyl [3]
#>      mpg   cyl  disp    hp  drat    wt  qsec    vs    am  gear  carb  .fitted
#>    <dbl> <dbl> <dbl> <dbl> <dbl> <dbl> <dbl> <dbl> <dbl> <dbl> <dbl>    <dbl>
#>  1  22.8     4 108.0    93  3.85 2.320 18.61     1     1     4     1 26.47010
#>  2  24.4     4 146.7    62  3.69 3.190 20.00     1     0     4     2 21.55719
#>  3  22.8     4 140.8    95  3.92 3.150 22.90     1     0     4     2 21.78307
#>  4  32.4     4  78.7    66  4.08 2.200 19.47     1     1     4     1 27.14774
#>  5  30.4     4  75.7    52  4.93 1.615 18.52     1     1     4     2 30.45125
#>  6  33.9     4  71.1    65  4.22 1.835 19.90     1     1     4     1 29.20890
#>  7  21.5     4 120.1    97  3.70 2.465 20.01     1     0     3     1 25.65128
#>  8  27.3     4  79.0    66  4.08 1.935 18.90     1     1     4     1 28.64420
#>  9  26.0     4 120.3    91  4.43 2.140 16.70     0     1     5     2 27.48656
#> 10  30.4     4  95.1   113  3.77 1.513 16.90     1     1     5     2 31.02725
#> # ... with 22 more rows, and 6 more variables: .se.fit <dbl>, .resid <dbl>,
#> #   .hat <dbl>, .sigma <dbl>, .cooksd <dbl>, .std.resid <dbl>
…
