Tidy a(n) svd object masquerading as list — tidy_svd • broom
…
Other svd tidiers: augment.prcomp,
  tidy.prcomp, tidy_irlba

Other list tidiers: glance_optim,
  list_tidiers, tidy_irlba,
  tidy_optim, tidy_xyz

    Examples

mat <- scale(as.matrix(iris[, 1:4]))
s <- svd(mat)

tidy_u <- tidy(s, matrix = "u")
tidy_u
#> # A tibble: 600 x 3
#>      row    PC   value
#>    <int> <int>   <dbl>
#>  1     1     1 -0.108 
#>  2     2     1 -0.0995
#>  3     3     1 -0.113 
#>  4     4     1 -0.110 
#>  5     5     1 -0.114 
#>  6     6     1 -0.0992
#>  7     7     1 -0.117 
#>  8     8     1 -0.107 
#>  9     9     1 -0.112 
#> 10    10     1 -0.104 
#> # ... with 590 more rows
…
