Tidy a(n) glmnet object — tidy.glmnet • broom
…
    tidied <- tidy(fit1) %>% filter(term != "(Intercept)")

    ggplot(tidied, aes(step, estimate, group = term)) + geom_line()
    ggplot(tidied, aes(lambda, estimate, group = term)) +
        geom_line() + scale_x_log10()

    ggplot(tidied, aes(lambda, dev.ratio)) + geom_line()

    # works for other types of regressions as well, such as logistic
    g2 <- sample(1:2, 100, replace=TRUE)
    fit2 <- glmnet(x, g2, family="binomial")
    tidy(fit2)
}
#> # A tibble: 976 x 5
#>    term         step estimate lambda dev.ratio
#>    <chr>       <dbl>    <dbl>  <dbl>     <dbl>
#>  1 (Intercept)     1  -0.241   0.177  1.78e-15
#>  2 (Intercept)     2  -0.241   0.161  1.57e- 2
#>  3 V13             2   0.0620  0.161  1.57e- 2
#>  4 (Intercept)     3  -0.241   0.147  2.88e- 2
#>  5 V13             3   0.119   0.147  2.88e- 2
#>  6 (Intercept)     4  -0.241   0.134  3.98e- 2
#>  7 V13             4   0.171   0.134  3.98e- 2
#>  8 (Intercept)     5  -0.242   0.122  4.91e- 2
#>  9 V13             5   0.220   0.122  4.91e- 2
#> 10 (Intercept)     6  -0.243   0.111  5.69e- 2
#> # ... with 966 more rows
…
