Tidy a(n) ts object — tidy.ts • broom
…
z <- ts(matrix(rnorm(300), 100, 3), start = c(1961, 1), frequency = 12)
colnames(z) <- c("Aa", "Bb", "Cc")
tidy(z)
#> # A tibble: 300 x 3
#>    index series  value
#>    <dbl> <chr>   <dbl>
#>  1 1961  Aa     -0.773
#>  2 1961. Aa      0.933
#>  3 1961. Aa      0.466
#>  4 1961. Aa     -1.08 
#>  5 1961. Aa     -2.16 
#>  6 1961. Aa     -0.719
#>  7 1962. Aa      1.04 
#>  8 1962. Aa      0.545
#>  9 1962. Aa     -0.606
#> 10 1962. Aa      0.774
#> # ... with 290 more rows
…
