Tidy a(n) cv.glmnet object — tidy.cv.glmnet • broom
…
library(glmnet)
set.seed(27)

nobs <- 100
nvar <- 50
real <- 5

x <- matrix(rnorm(nobs * nvar), nobs, nvar)
beta <- c(rnorm(real, 0, 1), rep(0, nvar - real))
y <- c(t(beta) %*% t(x)) + rnorm(nvar, sd = 3)

cvfit1 <- cv.glmnet(x,y)

tidy(cvfit1)
#> # A tibble: 73 x 6
#>    lambda estimate std.error conf.low conf.high nzero
#>     <dbl>    <dbl>     <dbl>    <dbl>     <dbl> <int>
#>  1  1.45      17.3      1.96     15.3      19.3     0
#>  2  1.32      17.2      1.98     15.2      19.1     1
#>  3  1.20      16.9      1.95     15.0      18.9     1
#>  4  1.09      16.7      1.93     14.8      18.6     1
#>  5  0.997     16.7      1.92     14.8      18.6     1
#>  6  0.909     16.8      1.91     14.9      18.7     2
#>  7  0.828     16.9      1.92     15.0      18.8     3
#>  8  0.754     17.0      1.94     15.1      18.9     5
#>  9  0.687     17.1      1.96     15.2      19.1     7
#> 10  0.626     17.3      1.98     15.3      19.3     7
#> # ... with 63 more rows
…
