tidy a TukeyHSD object — tidy.TukeyHSD • broom
…
# may include comparisons on multiple terms
fm2 <- aov(mpg ~ as.factor(gear) * as.factor(cyl), data = mtcars)
tidy(TukeyHSD(fm2))
#> # A tibble: 42 x 6
#>    term                      comparison estimate conf.low conf.high adj.p.value
#>    <chr>                     <chr>         <dbl>    <dbl>     <dbl>       <dbl>
#>  1 as.factor(gear)           4-3           8.43     5.19      11.7   0.00000297
#>  2 as.factor(gear)           5-3           5.27     0.955      9.59  0.0147    
#>  3 as.factor(gear)           5-4          -3.15    -7.60       1.30  0.201     
#>  4 as.factor(cyl)            6-4          -5.40    -9.45      -1.36  0.00748   
#>  5 as.factor(cyl)            8-4          -5.23    -8.60      -1.86  0.00201   
#>  6 as.factor(cyl)            8-6           0.172   -3.70       4.04  0.993     
#>  7 as.factor(gear):as.facto~ 4:4-3:4       5.42    -6.65      17.5   0.832     
#>  8 as.factor(gear):as.facto~ 5:4-3:4       6.70    -7.24      20.6   0.778     
#>  9 as.factor(gear):as.facto~ 3:6-3:4      -1.75   -15.7       12.2   1.000     
#> 10 as.factor(gear):as.facto~ 4:6-3:4      -1.75   -14.5       11.0   1.000     
#> # ... with 32 more rows
…
