Tidy a(n) plm object — tidy.plm • broom
…
augment(zz)
#> # A tibble: 816 x 7
#>    log.gsp. log.pcap. log.pc. log.emp. unemp .fitted   .resid
#>       <dbl>     <dbl>   <dbl>    <dbl> <dbl>   <dbl>    <dbl>
#>  1     10.3      9.62    10.5     6.92   4.7    10.3 -0.0466 
#>  2     10.3      9.65    10.5     6.93   5.2    10.3 -0.0306 
#>  3     10.4      9.68    10.6     6.98   4.7    10.4 -0.0165 
#>  4     10.4      9.71    10.6     7.03   3.9    10.4 -0.00873
#>  5     10.4      9.73    10.6     7.06   5.5    10.5 -0.0271 
#>  6     10.4      9.76    10.7     7.05   7.7    10.4 -0.0224 
#>  7     10.5      9.78    10.8     7.10   6.8    10.5 -0.0366 
#>  8     10.5      9.80    10.8     7.15   7.4    10.6 -0.0300 
#>  9     10.6      9.82    10.9     7.20   6.3    10.6 -0.0189 
#> 10     10.6      9.85    10.9     7.22   7.1    10.6 -0.0141 
#> # ... with 806 more rows
…
