Tidy a(n) confusionMatrix object — tidy.confusionMatrix • broom
…
# multiclass example

six_class_sample1 <- as.factor(sample(letters[1:6], 100, TRUE))
six_class_sample2 <- as.factor(sample(letters[1:6], 100, TRUE))

six_class_cm <- caret::confusionMatrix(
  six_class_sample1,
  six_class_sample2
)

tidy(six_class_cm)
#> # A tibble: 68 x 6
#>    term        class estimate conf.low conf.high p.value
#>    <chr>       <chr>    <dbl>    <dbl>     <dbl>   <dbl>
#>  1 accuracy    <NA>   0.16      0.0943     0.247   0.946
#>  2 kappa       <NA>  -0.00756  NA         NA       0.757
#>  3 sensitivity a      0.176    NA         NA      NA    
#>  4 sensitivity b      0.118    NA         NA      NA    
#>  5 sensitivity c      0.0909   NA         NA      NA    
#>  6 sensitivity d      0.222    NA         NA      NA    
#>  7 sensitivity e      0.0909   NA         NA      NA    
#>  8 sensitivity f      0.267    NA         NA      NA    
#>  9 specificity a      0.867    NA         NA      NA    
#> 10 specificity b      0.892    NA         NA      NA    
#> # ... with 58 more rows
…
